<?xml version="1.0" standalone="no"?>
<!DOCTYPE svg PUBLIC "-//W3C//DTD SVG 1.1//EN" "http://www.w3.org/Graphics/SVG/1.1/DTD/svg11.dtd" >
<svg xmlns="http://www.w3.org/2000/svg">
<metadata></metadata>
<defs>
<font id="source_sans_probold" horiz-adv-x="1081" >
<font-face units-per-em="2048" ascent="1536" descent="-512" />
<missing-glyph horiz-adv-x="425" />
<glyph horiz-adv-x="2048" />
<glyph horiz-adv-x="2048" />
<glyph unicode="&#xd;" horiz-adv-x="2048" />
<glyph unicode=" "  horiz-adv-x="425" />
<glyph unicode="&#x09;" horiz-adv-x="425" />
<glyph unicode="&#xa0;" horiz-adv-x="425" />
<glyph unicode="!" horiz-adv-x="696" d="M166 164q0 82 52 136t130 54t130 -54t52 -136q0 -80 -52 -134.5t-130 -54.5t-130 54.5t-52 134.5zM197 1372h303l-11 -272l-43 -627h-196l-43 627z" />
<glyph unicode="&#x22;" horiz-adv-x="1099" d="M156 1405h303l-10 -272l-60 -408h-164l-59 408zM641 1405h303l-10 -272l-60 -408h-163l-62 408z" />
<glyph unicode="#" d="M70 383v192h174l28 226h-161v192h186l43 338h172l-41 -338h213l43 338h172l-41 -338h162v-192h-186l-27 -226h172v-192h-195l-47 -383h-174l45 383h-211l-47 -383h-174l45 383h-151zM420 575h211l28 226h-213z" />
<glyph unicode="$" d="M80 135l131 203q159 -119 293 -119q85 0 125.5 35t40.5 106q0 42 -30 78.5t-77.5 64t-105.5 56t-115.5 63t-105 75.5t-77.5 102.5t-30 136.5q0 150 82.5 250t228.5 129v211h199v-207q167 -23 305 -168l-151 -172q-58 53 -109.5 77.5t-114.5 24.5q-151 0 -151 -131 q0 -39 30 -72t77.5 -58.5t105 -52t115 -60.5t105 -76t77.5 -106.5t30 -143.5q0 -151 -82 -255.5t-237 -137.5v-213h-199v205q-96 11 -193.5 51.5t-166.5 103.5z" />
<glyph unicode="%" horiz-adv-x="1755" d="M53 938q0 196 92 309t240 113t241 -113t93 -309q0 -197 -93 -311.5t-241 -114.5t-240 114.5t-92 311.5zM262 938q0 -134 34 -196t89 -62t89 62t34 196q0 133 -33.5 193.5t-89.5 60.5t-89.5 -60.5t-33.5 -193.5zM432 -25l721 1385h172l-719 -1385h-174zM1036 401 q0 196 93 309t241 113t241 -113t93 -309q0 -197 -93 -311.5t-241 -114.5t-241 114.5t-93 311.5zM1247 401q0 -134 34 -196t89 -62t89 62t34 196q0 254 -123 254t-123 -254z" />
<glyph unicode="&#x26;" horiz-adv-x="1366" d="M51 356q0 67 19 124.5t55 103t76 80t94 69.5q-82 154 -82 277q0 147 99.5 248.5t262.5 101.5q150 0 239 -82.5t89 -220.5q0 -62 -22.5 -117.5t-66 -103.5t-86 -82t-103.5 -76q111 -129 268 -244q106 137 154 320h274q-76 -250 -223 -451q137 -70 231 -84l-72 -244 q-164 34 -342 136q-183 -136 -419 -136q-209 0 -327 109.5t-118 271.5zM336 375q0 -75 55 -122.5t144 -47.5q84 0 170 53q-164 132 -279 277q-90 -80 -90 -160zM461 1012q0 -72 43 -160q83 49 126.5 96t43.5 109q0 49 -23 76.5t-69 27.5q-52 0 -86.5 -40.5t-34.5 -108.5z " />
<glyph unicode="'" horiz-adv-x="614" d="M156 1405h303l-10 -272l-60 -408h-164l-59 408z" />
<glyph unicode="(" horiz-adv-x="704" d="M147 569q0 261 68.5 489t202.5 447l188 -78q-215 -381 -215 -858t215 -858l-188 -78q-134 219 -202.5 447t-68.5 489z" />
<glyph unicode=")" horiz-adv-x="704" d="M98 -289q217 380 217 858t-217 858l189 78q134 -219 202 -446.5t68 -489.5t-68 -489.5t-202 -446.5z" />
<glyph unicode="*" horiz-adv-x="935" d="M78 1118l47 148l237 -49l27 241h158l26 -244l236 52l49 -148l-221 -100l121 -213l-125 -90l-164 182l-166 -182l-125 90l121 213z" />
<glyph unicode="+" d="M70 569v213h360v377h221v-377h361v-213h-361v-376h-221v376h-360z" />
<glyph unicode="," horiz-adv-x="614" d="M94 -238q111 39 171.5 105t60.5 145h-17q-76 0 -129 46t-53 124q0 76 54 124t134 48q101 0 155 -74.5t54 -209.5q0 -170 -94.5 -291.5t-273.5 -175.5z" />
<glyph unicode="-" horiz-adv-x="679" d="M88 412v213h504v-213h-504z" />
<glyph unicode="." horiz-adv-x="614" d="M125 164q0 82 52 136t130 54t130 -54t52 -136q0 -80 -52 -134.5t-130 -54.5t-130 54.5t-52 134.5z" />
<glyph unicode="/" horiz-adv-x="694" d="M27 -328l411 1782h197l-412 -1782h-196z" />
<glyph unicode="0" d="M76 655q0 324 125.5 497t339.5 173t339.5 -173t125.5 -497q0 -325 -125.5 -502.5t-339.5 -177.5t-339.5 177.5t-125.5 502.5zM360 655q0 -128 14 -218t39.5 -138.5t56.5 -69t71 -20.5q41 0 71.5 20.5t56 69t39 138t13.5 218.5t-13.5 217.5t-39 135t-56 65.5t-71.5 19 q-32 0 -57.5 -11t-49 -40.5t-39.5 -77.5t-25.5 -126t-9.5 -182z" />
<glyph unicode="1" d="M143 0v244h283v751h-244v187q186 36 324 118h221v-1056h244v-244h-828z" />
<glyph unicode="2" d="M61 1118q101 107 201.5 157t235.5 50q193 0 311.5 -113.5t118.5 -300.5q0 -78 -33 -163t-98.5 -176t-128 -163t-156.5 -171q132 16 217 16h262v-254h-915v172q87 82 137 130t119 116.5t107 112t82.5 99t67 96t37.5 84.5t15 83q0 94 -49 145.5t-135 51.5q-64 0 -118 -35 t-114 -99z" />
<glyph unicode="3" d="M45 160l139 190q134 -131 285 -131q97 0 154 40.5t57 113.5q0 46 -15.5 78t-53 57.5t-107.5 38t-174 12.5v213q166 0 236.5 45t70.5 129q0 68 -42 106t-118 38q-65 0 -121 -28t-123 -87l-151 184q194 166 410 166q204 0 326 -94t122 -262q0 -197 -217 -289v-8 q118 -34 188 -115.5t70 -202.5q0 -117 -66.5 -204.5t-175 -131t-241.5 -43.5q-296 0 -453 185z" />
<glyph unicode="4" d="M39 311v207l475 782h369v-759h149v-230h-149v-311h-281v311h-563zM328 541h274v211q0 44 12 290h-8q-39 -84 -106 -219z" />
<glyph unicode="5" d="M47 158l135 190q140 -129 281 -129q102 0 160.5 52.5t58.5 150.5q0 96 -56 148.5t-149 52.5q-55 0 -92.5 -13.5t-99.5 -52.5l-135 86l36 657h738v-253h-478l-22 -244q66 31 145 31q85 0 159 -25t131.5 -73t90.5 -127t33 -179q0 -140 -67 -245t-174 -157.5t-236 -52.5 q-276 0 -459 183z" />
<glyph unicode="6" d="M84 621q0 141 28.5 258.5t77.5 199t116.5 138t143.5 82.5t160 26q227 0 379 -156l-158 -180q-36 39 -91.5 65.5t-110.5 26.5q-117 0 -189.5 -95.5t-79.5 -309.5q49 62 123.5 99.5t137.5 37.5q175 0 281 -101.5t106 -299.5q0 -131 -59.5 -232t-157 -153t-216.5 -52 q-77 0 -147.5 23t-134 73.5t-109.5 124.5t-73 183t-27 242zM367 471q19 -144 73 -207t129 -63q72 0 118 53t46 158q0 98 -45.5 143t-124.5 45q-115 0 -196 -129z" />
<glyph unicode="7" d="M90 1047v253h905v-184q-75 -91 -130 -172.5t-94 -167t-63.5 -163.5t-40.5 -180.5t-24 -197.5t-14 -235h-303q19 335 94 567t254 480h-584z" />
<glyph unicode="8" d="M86 332q0 200 221 319v8q-174 132 -174 308q0 164 116 261t300 97q179 0 287 -97.5t108 -258.5q0 -88 -48 -162.5t-122 -122.5v-8q225 -122 225 -340q0 -156 -128 -258.5t-332 -102.5q-196 0 -324.5 100t-128.5 257zM344 367q0 -84 58 -133.5t143 -49.5q78 0 126 41.5 t48 120.5q0 23 -7 43.5t-15.5 36t-30.5 32.5t-36 27t-49.5 27t-52.5 24.5t-63 27.5l-21 9q-100 -93 -100 -206zM397 967q0 -74 55.5 -120t168.5 -89q79 91 79 190q0 76 -42 122t-115 46q-63 0 -104.5 -38.5t-41.5 -110.5z" />
<glyph unicode="9" d="M70 889q0 197 124.5 316.5t307.5 119.5q78 0 148.5 -22.5t134 -73t110 -124.5t73.5 -183t27 -242q0 -176 -43.5 -314t-118 -221.5t-167 -126.5t-197.5 -43q-225 0 -381 156l160 180q34 -38 90 -65t111 -27q118 0 189.5 95.5t78.5 310.5q-49 -62 -123 -100t-137 -38 q-174 0 -280.5 102t-106.5 300zM344 889q0 -98 46.5 -143.5t125.5 -45.5q117 0 195 129q-36 271 -203 271q-71 0 -117.5 -53.5t-46.5 -157.5z" />
<glyph unicode=":" horiz-adv-x="614" d="M125 164q0 82 52 136t130 54t130 -54t52 -136q0 -80 -52 -134.5t-130 -54.5t-130 54.5t-52 134.5zM125 827q0 82 52 136.5t130 54.5t130 -54.5t52 -136.5q0 -80 -52 -134t-130 -54t-130 54t-52 134z" />
<glyph unicode=";" horiz-adv-x="614" d="M94 -238q111 39 171.5 105t60.5 145h-17q-76 0 -129 46t-53 124q0 76 54 124t134 48q101 0 155 -74.5t54 -209.5q0 -170 -94.5 -291.5t-273.5 -175.5zM125 827q0 82 52 136.5t130 54.5t130 -54.5t52 -136.5q0 -80 -52 -134t-130 -54t-130 54t-52 134z" />
<glyph unicode="&#x3c;" d="M70 575v209l942 363v-248l-361 -119l-276 -96v-8l276 -96l361 -119v-248z" />
<glyph unicode="=" d="M70 332v211h942v-211h-942zM70 809v211h942v-211h-942z" />
<glyph unicode="&#x3e;" d="M70 213v248l360 119l277 96v8l-277 96l-360 119v248l942 -363v-209z" />
<glyph unicode="?" horiz-adv-x="948" d="M84 1210q72 87 167.5 137t205.5 50q183 0 294 -88t111 -262q0 -51 -17 -98.5t-43.5 -84.5t-58.5 -72.5t-62.5 -70.5t-55.5 -71.5t-37.5 -82t-7.5 -94.5h-265q-11 78 11 149t62 123t82 98t72.5 93t30.5 88q0 62 -37 95.5t-100 33.5q-53 0 -96.5 -24t-89.5 -70zM266 164 q0 82 51 136t129 54t130.5 -54t52.5 -136q0 -80 -52.5 -134.5t-130.5 -54.5q-77 0 -128.5 54.5t-51.5 134.5z" />
<glyph unicode="@" horiz-adv-x="1849" d="M100 420q0 168 47.5 318t133 264.5t200.5 197.5t254 126.5t289 43.5q218 0 383 -93t253.5 -258t88.5 -378q0 -135 -42.5 -245.5t-111 -178t-149.5 -103.5t-164 -36q-89 0 -153.5 41.5t-81.5 113.5h-5q-42 -59 -111.5 -97t-133.5 -38q-122 0 -196.5 84t-74.5 224 q0 125 53.5 240t150 188t210.5 73q108 0 156 -102h4l28 86h187l-94 -451q-43 -176 94 -176q97 0 170.5 103.5t73.5 265.5q0 114 -32 211t-97 175.5t-175.5 123.5t-255.5 45q-105 0 -206.5 -34t-189.5 -101t-155.5 -158t-106 -211.5t-38.5 -255.5q0 -118 31.5 -216.5 t87 -168.5t131 -118.5t163.5 -71.5t185 -23q158 0 311 80l66 -164q-180 -98 -401 -98q-125 0 -238.5 29.5t-212 92t-171 152.5t-114 217.5t-41.5 280.5zM754 424q0 -137 106 -137q66 0 135 92l49 276q-31 60 -94 60q-58 0 -104.5 -48t-69 -113.5t-22.5 -129.5z" />
<glyph unicode="A" horiz-adv-x="1173" d="M-12 0l418 1335h362l418 -1335h-320l-82 317h-407l-82 -317h-307zM438 553h285l-31 123q-16 59 -34.5 132t-40 162t-33.5 136h-9q-83 -354 -104 -430z" />
<glyph unicode="B" horiz-adv-x="1239" d="M158 0v1335h456q492 0 492 -331q0 -97 -56.5 -178.5t-166.5 -110.5v-8q288 -53 288 -314q0 -99 -40 -175.5t-111 -123.5t-163.5 -70.5t-203.5 -23.5h-495zM459 233h170q248 0 248 183q0 87 -61 127.5t-187 40.5h-170v-351zM459 797h141q107 0 159 43t52 121 q0 74 -51 107.5t-158 33.5h-143v-305z" />
<glyph unicode="C" horiz-adv-x="1191" d="M94 659q0 161 51 295t138.5 222t203 136t244.5 48q116 0 218 -49t177 -125l-165 -187q-56 50 -108.5 75.5t-117.5 25.5q-143 0 -237.5 -117t-94.5 -313q0 -204 87.5 -319t236.5 -115q146 0 254 118l166 -182q-170 -197 -424 -197q-131 0 -244.5 44.5t-199.5 128.5 t-135.5 215.5t-49.5 295.5z" />
<glyph unicode="D" horiz-adv-x="1300" d="M158 0v1335h377q317 0 493 -163.5t176 -497.5t-175 -504t-478 -170h-393zM459 244h57q181 0 280 101t99 329q0 117 -26.5 199.5t-78.5 129.5t-118.5 68t-155.5 21h-57v-848z" />
<glyph unicode="E" horiz-adv-x="1122" d="M158 0v1335h835v-254h-534v-268h454v-252h-454v-307h555v-254h-856z" />
<glyph unicode="F" horiz-adv-x="1073" d="M158 0v1335h841v-254h-540v-309h463v-254h-463v-518h-301z" />
<glyph unicode="G" horiz-adv-x="1306" d="M94 659q0 162 52 295.5t141.5 221.5t209 136t255.5 48q129 0 233.5 -49t179.5 -125l-166 -187q-56 51 -109.5 76t-133.5 25q-158 0 -255.5 -116t-97.5 -314q0 -208 95 -321t280 -113q95 0 144 40v230h-222v246h488v-615q-74 -71 -193.5 -116.5t-253.5 -45.5 q-136 0 -253 44.5t-205 128.5t-138.5 215.5t-50.5 295.5z" />
<glyph unicode="H" horiz-adv-x="1380" d="M158 0v1335h301v-514h461v514h303v-1335h-303v557h-461v-557h-301z" />
<glyph unicode="I" horiz-adv-x="616" d="M158 0v1335h301v-1335h-301z" />
<glyph unicode="J" horiz-adv-x="1042" d="M33 217l205 152q36 -66 84.5 -99.5t101.5 -33.5q85 0 125.5 52t40.5 181v866h301v-891q0 -99 -26 -182.5t-77 -148.5t-134.5 -101.5t-190.5 -36.5q-151 0 -255.5 59.5t-174.5 182.5z" />
<glyph unicode="K" horiz-adv-x="1257" d="M158 0v1335h301v-547h8l397 547h332l-403 -532l477 -803h-330l-326 563l-155 -205v-358h-301z" />
<glyph unicode="L" horiz-adv-x="1060" d="M158 0v1335h301v-1081h528v-254h-829z" />
<glyph unicode="M" horiz-adv-x="1560" d="M158 0v1335h319l223 -600l80 -233h8l80 233l217 600h318v-1335h-281v489q0 37 2.5 82.5t7.5 100t9 91.5t11 99.5t9 81.5h-8l-111 -309l-204 -518h-121l-205 518l-106 309h-9q37 -341 37 -455v-489h-276z" />
<glyph unicode="N" horiz-adv-x="1361" d="M158 0v1335h309l348 -663l131 -295h8q-2 29 -13.5 141t-17 193.5t-5.5 152.5v471h286v-1335h-309l-348 666l-131 290h-8q3 -40 13.5 -145t16.5 -186t6 -152v-473h-286z" />
<glyph unicode="O" horiz-adv-x="1400" d="M94 674q0 322 165.5 504t440.5 182q274 0 440.5 -182.5t166.5 -503.5q0 -323 -167 -511t-440 -188t-439.5 188t-166.5 511zM403 674q0 -201 80.5 -319.5t216.5 -118.5t216.5 118.5t80.5 319.5q0 199 -80 312.5t-217 113.5t-217 -113.5t-80 -312.5z" />
<glyph unicode="P" horiz-adv-x="1241" d="M158 0v1335h487q90 0 165.5 -13.5t142.5 -45t113.5 -80t73.5 -122.5t27 -169q0 -114 -41.5 -202t-114 -142t-165 -81t-201.5 -27h-186v-453h-301zM459 692h168q245 0 245 213q0 102 -60.5 146.5t-184.5 44.5h-168v-404z" />
<glyph unicode="Q" horiz-adv-x="1400" d="M94 674q0 322 165.5 504t440.5 182q274 0 440.5 -182.5t166.5 -503.5q0 -265 -113.5 -441.5t-310.5 -232.5q43 -65 121.5 -95t171.5 -30q77 0 147 25l53 -222q-84 -43 -235 -43q-206 0 -355.5 96t-222.5 259q-217 45 -343 225t-126 459zM403 674q0 -212 80 -332.5 t217 -120.5t217 120.5t80 332.5q0 199 -80 312.5t-217 113.5t-217 -113.5t-80 -312.5z" />
<glyph unicode="R" horiz-adv-x="1261" d="M158 0v1335h481q88 0 162.5 -12.5t140.5 -42.5t112 -76.5t72.5 -118.5t26.5 -165q0 -143 -63 -239.5t-175 -145.5l304 -535h-338l-256 481h-166v-481h-301zM459 721h155q119 0 181.5 50.5t62.5 148.5q0 95 -60.5 135.5t-183.5 40.5h-155v-375z" />
<glyph unicode="S" horiz-adv-x="1138" d="M72 168l172 207q74 -64 161 -101.5t168 -37.5q92 0 139.5 34t47.5 95q0 29 -9.5 49.5t-39.5 40t-49 28.5t-74 32l-21 9l-174 74q-116 47 -192 138t-76 227q0 168 134 282.5t341 114.5q118 0 231.5 -45.5t198.5 -130.5l-153 -191q-138 107 -277 107q-79 0 -124.5 -32 t-45.5 -89q0 -27 12 -48.5t40 -39t53.5 -29.5t72.5 -31q5 -2 8 -3.5t8 -3t9 -3.5l172 -69q128 -52 196 -140t68 -223q0 -83 -34.5 -158t-97.5 -132t-159.5 -90.5t-212.5 -33.5q-133 0 -263.5 50t-229.5 143z" />
<glyph unicode="T" horiz-adv-x="1138" d="M51 1081v254h1036v-254h-366v-1081h-303v1081h-367z" />
<glyph unicode="U" horiz-adv-x="1361" d="M150 618v717h303v-747q0 -190 57 -271t174 -81q118 0 177 81.5t59 270.5v747h290v-717q0 -331 -132 -487t-394 -156q-265 0 -399.5 156t-134.5 487z" />
<glyph unicode="V" horiz-adv-x="1138" d="M-14 1335h319l160 -622q21 -74 54.5 -215t53.5 -213h9q19 71 52.5 212.5t53.5 215.5l158 622h307l-401 -1335h-363z" />
<glyph unicode="W" horiz-adv-x="1665" d="M29 1335h309l92 -624q8 -67 26.5 -208.5t26.5 -213.5h9q12 64 38.5 206t40.5 216l144 624h256l143 -624q6 -29 80 -422h8q10 81 55 422l93 624h288l-237 -1335h-379l-131 606q-24 107 -53 309h-9q-39 -236 -55 -309l-125 -606h-373z" />
<glyph unicode="X" horiz-adv-x="1161" d="M23 0l370 686l-348 649h336l117 -252q10 -19 96 -215h8q46 125 86 215l107 252h321l-346 -663l369 -672h-336l-133 272q-40 86 -101 220h-8q-12 -32 -90 -220l-125 -272h-323z" />
<glyph unicode="Y" horiz-adv-x="1075" d="M-16 1335h323l119 -307q102 -274 109 -295h8q88 231 112 295l121 307h316l-404 -860v-475h-301v475z" />
<glyph unicode="Z" horiz-adv-x="1107" d="M74 0v182l590 899h-535v254h905v-182l-590 -899h596v-254h-966z" />
<glyph unicode="[" horiz-adv-x="704" d="M178 -311v1761h432v-160h-207v-1442h207v-159h-432z" />
<glyph unicode="\" horiz-adv-x="694" d="M57 1454h197l414 -1782h-197z" />
<glyph unicode="]" horiz-adv-x="704" d="M94 -152h209v1442h-209v160h432v-1761h-432v159z" />
<glyph unicode="^" d="M102 561l318 811h242l317 -811h-248l-94 262l-92 277h-8l-93 -277l-94 -262h-248z" />
<glyph unicode="_" horiz-adv-x="1024" d="M25 -117h974v-170h-974v170z" />
<glyph unicode="`" horiz-adv-x="1136" d="M262 1483h291l182 -307h-219z" />
<glyph unicode="a" horiz-adv-x="1093" d="M96 283q0 161 136.5 250t435.5 120q-10 148 -160 148q-112 0 -270 -92l-107 198q220 133 434 133q198 0 301 -114t103 -344v-582h-246l-23 104h-6q-146 -129 -297 -129q-135 0 -218 88t-83 220zM383 305q0 -96 117 -96q49 0 86.5 21t81.5 65v178q-153 -21 -219 -63.5 t-66 -104.5z" />
<glyph unicode="b" horiz-adv-x="1173" d="M133 0v1436h301v-353l-8 -155q125 112 268 112q184 0 292 -140t108 -374q0 -127 -36 -233t-96 -174.5t-136.5 -106t-159.5 -37.5q-143 0 -265 131h-8l-24 -106h-236zM434 287q71 -66 162 -66q83 0 135.5 75t52.5 224q0 275 -176 275q-90 0 -174 -93v-415z" />
<glyph unicode="c" horiz-adv-x="956" d="M74 508q0 123 43 225t116 168.5t168 102.5t201 36q184 0 297 -116l-137 -187q-72 60 -141 60q-109 0 -173.5 -78.5t-64.5 -210.5q0 -130 63.5 -209.5t163.5 -79.5q90 0 183 74l120 -191q-71 -62 -161 -94.5t-177 -32.5q-106 0 -197.5 36t-159 103t-106 168.5t-38.5 225.5 z" />
<glyph unicode="d" horiz-adv-x="1173" d="M80 508q0 121 35.5 223t95 168.5t135 103.5t156.5 37q80 0 136.5 -26t113.5 -80l-13 156v346h301v-1436h-245l-21 100h-8q-56 -56 -127.5 -90.5t-142.5 -34.5q-190 0 -303 143t-113 390zM389 512q0 -291 184 -291q100 0 166 92v416q-71 66 -168 66q-77 0 -129.5 -73 t-52.5 -210z" />
<glyph unicode="e" horiz-adv-x="1060" d="M74 508q0 120 40.5 222t107.5 168.5t153 104t178 37.5q209 0 320.5 -135.5t111.5 -351.5q0 -77 -12 -127h-608q20 -112 89.5 -166.5t174.5 -54.5q109 0 219 67l100 -182q-78 -54 -173.5 -84.5t-186.5 -30.5q-224 0 -369 143.5t-145 389.5zM362 612h367q0 93 -41.5 146 t-128.5 53q-74 0 -128.5 -51t-68.5 -148z" />
<glyph unicode="f" horiz-adv-x="698" d="M49 780v224l135 10v55q0 84 20.5 152.5t63.5 123t117 85t174 30.5q99 0 203 -37l-55 -221q-61 21 -105 21q-117 0 -117 -146v-61h183v-236h-183v-780h-301v780h-135z" />
<glyph unicode="g" horiz-adv-x="1093" d="M70 -174q0 123 145 205v8q-94 62 -94 172q0 54 32 104.5t83 85.5v9q-59 40 -98.5 110t-39.5 154q0 89 34.5 160t93.5 115t133.5 67.5t158.5 23.5q90 0 158 -24h371v-219h-162q33 -57 33 -133q0 -167 -111.5 -254.5t-288.5 -87.5q-59 0 -123 20q-21 -18 -29 -34t-8 -42 q0 -39 35.5 -57.5t118.5 -18.5h164q192 0 289.5 -62t97.5 -196q0 -160 -154.5 -262t-412.5 -102q-123 0 -216.5 26t-151.5 85.5t-58 146.5zM317 -127q0 -56 61.5 -86.5t164.5 -30.5q100 0 166.5 36t66.5 89q0 45 -37.5 62.5t-117.5 17.5h-105q-94 0 -143 12 q-56 -50 -56 -100zM379 674q0 -82 38.5 -126t100.5 -44t100.5 44t38.5 126q0 77 -38.5 120.5t-100.5 43.5t-100.5 -42.5t-38.5 -121.5z" />
<glyph unicode="h" horiz-adv-x="1169" d="M133 0v1436h301v-353l-14 -182q155 139 313 139q161 0 238.5 -106t77.5 -303v-631h-301v592q0 107 -29.5 149.5t-95.5 42.5q-53 0 -93.5 -23t-95.5 -75v-686h-301z" />
<glyph unicode="i" horiz-adv-x="565" d="M109 1323q0 69 49.5 112.5t124.5 43.5q77 0 125.5 -43.5t48.5 -112.5t-49 -113.5t-125 -44.5q-75 0 -124.5 44.5t-49.5 113.5zM133 0v1016h301v-1016h-301z" />
<glyph unicode="j" horiz-adv-x="569" d="M-104 -373l53 221q47 -14 80 -14q59 0 82.5 38.5t23.5 125.5v1018h301v-1010q0 -87 -18.5 -157.5t-58.5 -128t-112.5 -89.5t-172.5 -32q-106 0 -178 28zM113 1323q0 69 49.5 112.5t124.5 43.5t124.5 -43.5t49.5 -112.5t-49.5 -113.5t-124.5 -44.5t-124.5 44.5 t-49.5 113.5z" />
<glyph unicode="k" horiz-adv-x="1122" d="M133 0v1436h293v-824h8l322 404h327l-356 -418l383 -598h-326l-229 395l-129 -145v-250h-293z" />
<glyph unicode="l" horiz-adv-x="585" d="M133 315v1121h301v-1133q0 -43 15.5 -63.5t37.5 -20.5q21 0 37 4l37 -223q-59 -25 -151 -25q-148 0 -212.5 88t-64.5 252z" />
<glyph unicode="m" horiz-adv-x="1755" d="M133 0v1016h246l20 -131h9q74 74 145 114.5t162 40.5q200 0 280 -170q80 82 154 126t166 44q160 0 238.5 -106.5t78.5 -302.5v-631h-301v592q0 107 -29.5 149.5t-95.5 42.5q-76 0 -174 -98v-686h-301v592q0 107 -29.5 149.5t-95.5 42.5q-78 0 -172 -98v-686h-301z" />
<glyph unicode="n" horiz-adv-x="1171" d="M133 0v1016h246l20 -129h9q160 153 325 153q161 0 238.5 -106t77.5 -303v-631h-301v592q0 107 -29.5 149.5t-95.5 42.5q-53 0 -93.5 -23t-95.5 -75v-686h-301z" />
<glyph unicode="o" horiz-adv-x="1136" d="M74 508q0 123 41 225t110 168.5t158 102.5t186 36t185.5 -36t157.5 -102.5t110 -168.5t41 -225t-41 -225.5t-110 -168.5t-157.5 -102.5t-185.5 -36.5t-186 36.5t-158 102.5t-110 168.5t-41 225.5zM383 508q0 -135 47 -212t139 -77q91 0 139 77t48 212t-48 212t-139 77 q-92 0 -139 -77t-47 -212z" />
<glyph unicode="p" horiz-adv-x="1173" d="M133 -377v1393h246l20 -101h9q139 125 288 125q184 0 291 -140t107 -376q0 -126 -36 -231.5t-96 -174t-136.5 -106t-159.5 -37.5q-129 0 -242 107l10 -162v-297h-301zM434 287q71 -66 162 -66q83 0 135.5 75t52.5 224q0 275 -176 275q-87 0 -174 -93v-415z" />
<glyph unicode="q" horiz-adv-x="1171" d="M80 508q0 121 35.5 223t95 168.5t135 103.5t156.5 37q82 0 145.5 -30t124.5 -95h8l25 101h235v-1393h-301v309l13 156q-53 -51 -121 -82t-135 -31q-190 0 -303 143t-113 390zM389 512q0 -291 184 -291q100 0 166 92v416q-71 66 -168 66q-77 0 -129.5 -73t-52.5 -210z" />
<glyph unicode="r" horiz-adv-x="815" d="M133 0v1016h246l20 -178h9q54 99 130.5 150.5t157.5 51.5q73 0 121 -20l-49 -260q-59 16 -111 16q-64 0 -125 -45.5t-98 -140.5v-590h-301z" />
<glyph unicode="s" horiz-adv-x="907" d="M43 117l135 188q139 -106 262 -106q129 0 129 86q0 14 -5 26.5t-18.5 24t-24 19.5t-35 19t-37 16t-44 17t-43.5 17q-268 102 -268 299q0 142 106.5 229.5t282.5 87.5q187 0 359 -129l-135 -180q-120 86 -215 86q-115 0 -115 -80q0 -14 5 -25.5t17 -22t22.5 -18t33 -17.5 t35 -15t42.5 -15.5t43 -15.5q45 -16 79 -32t73 -42.5t64 -56.5t42 -75t17 -99q0 -143 -110.5 -235.5t-307.5 -92.5q-99 0 -205.5 39t-183.5 103z" />
<glyph unicode="t" horiz-adv-x="784" d="M35 780v224l155 12l35 270h250v-270h244v-236h-244v-407q0 -162 131 -162q42 0 96 20l48 -219q-123 -37 -226 -37q-181 0 -265.5 104t-84.5 290v411h-139z" />
<glyph unicode="u" horiz-adv-x="1163" d="M123 385v631h301v-592q0 -107 30 -150t97 -43q56 0 95 25.5t85 87.5v672h301v-1016h-246l-22 141h-6q-69 -82 -145 -124t-175 -42q-315 0 -315 410z" />
<glyph unicode="v" horiz-adv-x="1071" d="M25 1016h303l131 -479q0 -1 80 -314h8q47 199 78 314l133 479h289l-332 -1016h-348z" />
<glyph unicode="w" horiz-adv-x="1589" d="M49 1016h299l98 -471q9 -54 24 -154.5t22 -146.5h8q41 231 59 301l113 471h260l115 -471q18 -74 63 -301h8q9 50 23.5 150t23.5 151l97 471h278l-244 -1016h-352l-92 406q-27 128 -55 296h-9q-36 -216 -51 -296l-90 -406h-344z" />
<glyph unicode="x" horiz-adv-x="1052" d="M29 0l311 528l-293 488h324l90 -164q34 -72 86 -174h8q1 4 70 174l69 164h312l-295 -522l313 -494h-324l-98 168q-16 29 -48 88t-48 88h-8q-8 -18 -36 -80t-42 -96l-80 -168h-311z" />
<glyph unicode="y" horiz-adv-x="1067" d="M25 1016h303l145 -436q14 -44 80 -289h8q60 253 70 289l123 436h288l-352 -1026q-38 -101 -76.5 -169.5t-91 -119.5t-120 -74.5t-156.5 -23.5q-76 0 -144 20l54 230q58 -13 67 -13q133 0 178 133l15 54z" />
<glyph unicode="z" horiz-adv-x="942" d="M78 0v162l426 618h-379v236h754v-160l-426 -620h440v-236h-815z" />
<glyph unicode="{" horiz-adv-x="704" d="M63 481v176q92 3 134.5 46.5t42.5 105.5q0 63 -10.5 169t-10.5 181q0 162 61.5 226.5t200.5 64.5h129v-160h-39q-63 0 -85.5 -29.5t-22.5 -113.5q0 -54 4 -162t4 -172q0 -113 -36 -167t-116 -73v-8q80 -20 116 -73t36 -166q0 -64 -4 -172t-4 -162q0 -85 22.5 -114.5 t85.5 -29.5h39v-159h-129q-139 0 -200.5 64.5t-61.5 226.5q0 74 10.5 181t10.5 169t-42.5 105t-134.5 46z" />
<glyph unicode="|" horiz-adv-x="548" d="M176 -512v2048h197v-2048h-197z" />
<glyph unicode="}" horiz-adv-x="704" d="M94 -152h39q64 0 86.5 29.5t22.5 114.5q0 54 -4.5 162t-4.5 172q0 113 36 166t116 73v8q-80 19 -116 73t-36 167q0 64 4.5 172t4.5 162q0 85 -22 114t-87 29h-39v160h129q139 0 200.5 -64.5t61.5 -226.5q0 -75 -10 -181t-10 -169q0 -62 42 -105.5t134 -46.5v-176 q-92 -3 -134 -46t-42 -105t10 -169t10 -181q0 -162 -61.5 -226.5t-200.5 -64.5h-129v159z" />
<glyph unicode="~" d="M59 649q137 211 308 211q47 0 90 -16t75.5 -39t62 -45.5t61.5 -38.5t63 -16q80 0 147 118l156 -121q-136 -210 -307 -210q-47 0 -90.5 16t-75.5 39t-62 45.5t-62 38.5t-63 16q-80 0 -147 -119z" />
<glyph unicode="&#xa2;" d="M123 629q0 211 121.5 346t318.5 168v198h166v-190q157 -15 254 -115l-137 -184q-61 49 -117 55v-557q75 13 148 72l120 -191q-115 -100 -268 -120v-195h-166v195q-203 27 -321.5 163t-118.5 355zM416 629q0 -93 37.5 -159t109.5 -97v512q-147 -65 -147 -256z" />
<glyph unicode="&#xa3;" d="M98 0v186q96 43 156.5 126t60.5 188q0 19 -4 55h-205v176l140 10h12q-33 101 -33 164q0 191 123 305.5t316 114.5q210 0 354 -166l-164 -164q-71 86 -162 86q-84 0 -131 -48t-47 -144q0 -54 23 -148h303v-186h-265q5 -45 5 -57q0 -73 -21.5 -126.5t-71.5 -109.5v-8h531 v-254h-920z" />
<glyph unicode="&#xa5;" d="M25 1300h309l104 -272q66 -180 103 -268h8q15 39 49 129.5t53 138.5l103 272h303l-301 -600h250v-143h-316v-113h316v-143h-316v-301h-301v301h-313v143h313v113h-313v143h250z" />
<glyph unicode="&#xa8;" horiz-adv-x="1136" d="M223 1313q0 61 40 101t102 40q64 0 103.5 -40t39.5 -101q0 -62 -39.5 -103t-103.5 -41q-62 0 -102 41t-40 103zM629 1313q0 61 40.5 101t102.5 40t102.5 -40t40.5 -101q0 -62 -40 -103t-103 -41t-103 41t-40 103z" />
<glyph unicode="&#xa9;" horiz-adv-x="1536" d="M92 666q0 124 35.5 232.5t98.5 188.5t147.5 138t185 87t209.5 29q136 0 258 -47t214.5 -131.5t147 -213.5t54.5 -283q0 -155 -54.5 -285t-147 -216.5t-214.5 -134.5t-258 -48t-258.5 48t-215.5 134.5t-147.5 216.5t-54.5 285zM231 666q0 -123 41.5 -228.5t114 -178 t171 -113t210.5 -40.5t210.5 40.5t171 113t114 178t41.5 228.5q0 247 -153.5 400t-383.5 153t-383.5 -153t-153.5 -400zM397 664q0 116 56 207t146 138.5t194 47.5q86 0 149.5 -32t120.5 -89l-113 -125q-67 70 -139 70q-94 0 -146.5 -61.5t-52.5 -155.5q0 -104 51.5 -166 t137.5 -62q47 0 83.5 17.5t80.5 52.5l98 -139q-137 -107 -270 -107q-174 0 -285 110.5t-111 293.5z" />
<glyph unicode="&#xab;" horiz-adv-x="983" d="M100 410v213l275 295l112 -91l-227 -311l227 -311l-112 -90zM485 410v213l277 295l110 -91l-227 -311l227 -311l-110 -90z" />
<glyph unicode="&#xad;" horiz-adv-x="679" d="M88 412v213h504v-213h-504z" />
<glyph unicode="&#xae;" horiz-adv-x="946" d="M66 1051q0 179 118 296t289 117q170 0 288 -117t118 -296t-118 -296.5t-288 -117.5q-171 0 -289 117.5t-118 296.5zM178 1051q0 -141 82.5 -227.5t212.5 -86.5t211.5 86.5t81.5 227.5t-81.5 227t-211.5 86t-212.5 -86t-82.5 -227zM307 852v403h182q74 0 120 -34.5 t46 -100.5q0 -75 -71 -110l84 -158h-123l-62 123h-59v-123h-117zM424 1057h43q29 0 45 16t16 41q0 23 -16 38t-45 15h-43v-110z" />
<glyph unicode="&#xb4;" horiz-adv-x="1136" d="M401 1176l183 307h290l-253 -307h-220z" />
<glyph unicode="&#xb8;" horiz-adv-x="1136" d="M360 -332q170 17 170 90q0 28 -26.5 48.5t-91.5 37.5l82 164h174l-41 -96q121 -40 121 -152q0 -99 -102.5 -152t-262.5 -61z" />
<glyph unicode="&#xbb;" horiz-adv-x="983" d="M111 205l227 311l-227 311l112 91l275 -295v-213l-275 -295zM496 205l227 311l-227 311l112 91l277 -295v-213l-277 -295z" />
<glyph unicode="&#xd3;" horiz-adv-x="1400" d="M94 674q0 322 165.5 504t440.5 182q274 0 440.5 -182.5t166.5 -503.5q0 -323 -167 -511t-440 -188t-439.5 188t-166.5 511zM403 674q0 -201 80.5 -319.5t216.5 -118.5t216.5 118.5t80.5 319.5q0 199 -80 312.5t-217 113.5t-217 -113.5t-80 -312.5zM547 1438l166 245h319 l-244 -245h-241z" />
<glyph unicode="&#xf3;" horiz-adv-x="1136" d="M74 508q0 123 41 225t110 168.5t158 102.5t186 36t185.5 -36t157.5 -102.5t110 -168.5t41 -225t-41 -225.5t-110 -168.5t-157.5 -102.5t-185.5 -36.5t-186 36.5t-158 102.5t-110 168.5t-41 225.5zM383 508q0 -135 47 -212t139 -77q91 0 139 77t48 212t-48 212t-139 77 q-92 0 -139 -77t-47 -212zM401 1176l183 307h290l-253 -307h-220z" />
<glyph unicode="&#x104;" horiz-adv-x="1173" d="M-12 0l418 1335h362l418 -1335q-81 -7 -133 -63t-52 -121q0 -37 23 -57.5t57 -20.5q39 0 80 29l70 -152q-40 -31 -100.5 -51.5t-114.5 -20.5q-102 0 -168 51.5t-66 141.5q0 86 52 157t114 107h-82l-82 317h-407l-82 -317h-307zM438 553h285l-31 123q-16 59 -34.5 132 t-40 162t-33.5 136h-9q-83 -354 -104 -430z" />
<glyph unicode="&#x105;" horiz-adv-x="1093" d="M96 281q0 162 136.5 251.5t435.5 120.5q-10 148 -160 148q-112 0 -270 -92l-107 198q220 133 434 133q198 0 301 -114t103 -344v-582q-92 -26 -136.5 -74t-44.5 -100q0 -39 25 -58.5t61 -19.5t74 25l62 -135q-37 -30 -96.5 -49t-110.5 -19q-95 0 -156 48.5t-61 137.5 q0 81 44 143t97 97l-27 108h-6q-146 -129 -297 -129q-135 0 -218 87.5t-83 218.5zM383 305q0 -96 117 -96q49 0 86.5 21t81.5 65v178q-153 -21 -219 -63.5t-66 -104.5z" />
<glyph unicode="&#x106;" horiz-adv-x="1191" d="M94 659q0 161 51 295t138.5 222t203 136t244.5 48q116 0 218 -49t177 -125l-165 -187q-56 50 -108.5 75.5t-117.5 25.5q-143 0 -237.5 -117t-94.5 -313q0 -204 87.5 -319t236.5 -115q146 0 254 118l166 -182q-170 -197 -424 -197q-131 0 -244.5 44.5t-199.5 128.5 t-135.5 215.5t-49.5 295.5zM549 1438l166 245h319l-243 -245h-242z" />
<glyph unicode="&#x107;" horiz-adv-x="956" d="M74 508q0 123 43 225t116 168.5t168 102.5t201 36q184 0 297 -116l-137 -187q-72 60 -141 60q-109 0 -173.5 -78.5t-64.5 -210.5q0 -130 63.5 -209.5t163.5 -79.5q90 0 183 74l120 -191q-71 -62 -161 -94.5t-177 -32.5q-106 0 -197.5 36t-159 103t-106 168.5t-38.5 225.5 zM428 1176l180 307h293l-254 -307h-219z" />
<glyph unicode="&#x118;" horiz-adv-x="1122" d="M158 0v1335h835v-254h-534v-268h454v-252h-454v-307h555v-254h-10q-70 -3 -123.5 -59.5t-53.5 -124.5q0 -37 25.5 -57.5t60.5 -20.5q33 0 74 29l70 -152q-40 -31 -100.5 -51.5t-114.5 -20.5q-102 0 -169 51.5t-67 141.5q0 85 49.5 155t112.5 109h-610z" />
<glyph unicode="&#x119;" horiz-adv-x="1060" d="M74 508q0 120 40.5 222t107.5 168.5t153 104t178 37.5q209 0 320.5 -135.5t111.5 -351.5q0 -77 -12 -127h-608q20 -112 89.5 -166.5t174.5 -54.5q109 0 219 67l100 -182q-131 -91 -176 -146.5t-45 -117.5q0 -38 24.5 -58t63.5 -20q30 0 72 25l61 -135q-37 -30 -96.5 -49 t-110.5 -19q-94 0 -153.5 48.5t-59.5 137.5q0 68 34 126.5t81 99.5q-29 -7 -55 -7q-224 0 -369 143.5t-145 389.5zM362 612h367q0 93 -41.5 146t-128.5 53q-75 0 -129 -50.5t-68 -148.5z" />
<glyph unicode="&#x141;" horiz-adv-x="1073" d="M23 342v233l149 89v671h303v-532l354 194v-233l-354 -195v-315h526v-254h-829v430z" />
<glyph unicode="&#x142;" horiz-adv-x="620" d="M31 492v239l123 76v629h301v-480l133 80v-241l-133 -80v-412q0 -43 15.5 -63.5t37.5 -20.5q21 0 37 4l37 -223q-62 -25 -152 -25q-148 0 -212 88t-64 252v250z" />
<glyph unicode="&#x143;" horiz-adv-x="1361" d="M158 0v1335h309l348 -663l131 -295h8q-2 29 -13.5 141t-17 193.5t-5.5 152.5v471h286v-1335h-309l-348 666l-131 290h-8q3 -40 13.5 -145t16.5 -186t6 -152v-473h-286zM530 1438l164 245h320l-244 -245h-240z" />
<glyph unicode="&#x144;" horiz-adv-x="1171" d="M133 0v1016h246l20 -129h9q160 153 325 153q161 0 238.5 -106t77.5 -303v-631h-301v592q0 107 -29.5 149.5t-95.5 42.5q-53 0 -93.5 -23t-95.5 -75v-686h-301zM463 1176l182 307h291l-254 -307h-219z" />
<glyph unicode="&#x15a;" horiz-adv-x="1138" d="M72 168l172 207q74 -64 161 -101.5t168 -37.5q92 0 139.5 34t47.5 95q0 29 -9.5 49.5t-39.5 40t-49 28.5t-74 32l-21 9l-174 74q-116 47 -192 138t-76 227q0 168 134 282.5t341 114.5q118 0 231.5 -45.5t198.5 -130.5l-153 -191q-138 107 -277 107q-79 0 -124.5 -32 t-45.5 -89q0 -27 12 -48.5t40 -39t53.5 -29.5t72.5 -31q5 -2 8 -3.5t8 -3t9 -3.5l172 -69q128 -52 196 -140t68 -223q0 -83 -34.5 -158t-97.5 -132t-159.5 -90.5t-212.5 -33.5q-133 0 -263.5 50t-229.5 143zM442 1438l166 245h320l-244 -245h-242z" />
<glyph unicode="&#x15b;" horiz-adv-x="907" d="M43 117l135 188q139 -106 262 -106q129 0 129 86q0 14 -5 26.5t-18.5 24t-24 19.5t-35 19t-37 16t-44 17t-43.5 17q-268 102 -268 299q0 142 106.5 229.5t282.5 87.5q187 0 359 -129l-135 -180q-120 86 -215 86q-115 0 -115 -80q0 -14 5 -25.5t17 -22t22.5 -18t33 -17.5 t35 -15t42.5 -15.5t43 -15.5q45 -16 79 -32t73 -42.5t64 -56.5t42 -75t17 -99q0 -143 -110.5 -235.5t-307.5 -92.5q-99 0 -205.5 39t-183.5 103zM315 1176l183 307h290l-253 -307h-220z" />
<glyph unicode="&#x179;" horiz-adv-x="1107" d="M74 0v182l590 899h-535v254h905v-182l-590 -899h596v-254h-966zM426 1438l166 245h319l-243 -245h-242z" />
<glyph unicode="&#x17a;" horiz-adv-x="942" d="M78 0v162l426 618h-379v236h754v-160l-426 -620h440v-236h-815zM336 1176l182 307h291l-254 -307h-219z" />
<glyph unicode="&#x17b;" horiz-adv-x="1107" d="M74 0v182l590 899h-535v254h905v-182l-590 -899h596v-254h-966zM406 1593q0 69 49.5 113.5t124.5 44.5t124.5 -44.5t49.5 -113.5t-49.5 -113t-124.5 -44t-124.5 44t-49.5 113z" />
<glyph unicode="&#x17c;" horiz-adv-x="942" d="M78 0v162l426 618h-379v236h754v-160l-426 -620h440v-236h-815zM336 1323q0 69 47 113.5t119 44.5q73 0 120.5 -44.5t47.5 -113.5t-47.5 -113.5t-120.5 -44.5q-72 0 -119 44.5t-47 113.5z" />
<glyph unicode="&#x2c6;" horiz-adv-x="1136" d="M252 1176l197 307h239l197 -307h-203l-109 161h-8l-110 -161h-203z" />
<glyph unicode="&#x2da;" horiz-adv-x="1136" d="M338 1331q0 95 63.5 152t167.5 57q103 0 166.5 -57t63.5 -152t-63.5 -152t-166.5 -57q-104 0 -167.5 57t-63.5 152zM485 1331q0 -42 24 -69t60 -27q34 0 58 27t24 69t-24 69t-58 27q-36 0 -60 -27t-24 -69z" />
<glyph unicode="&#x2dc;" horiz-adv-x="1136" d="M229 1178q15 135 71.5 205.5t139.5 70.5q47 0 95 -22.5t86.5 -45t62.5 -22.5q27 0 43.5 20.5t26.5 69.5h153q-15 -135 -71 -205.5t-140 -70.5q-47 0 -94.5 23t-85.5 46t-61 23q-28 0 -45 -21t-27 -71h-154z" />
<glyph unicode="&#x2000;" horiz-adv-x="875" />
<glyph unicode="&#x2001;" horiz-adv-x="1751" />
<glyph unicode="&#x2002;" horiz-adv-x="875" />
<glyph unicode="&#x2003;" horiz-adv-x="1751" />
<glyph unicode="&#x2004;" horiz-adv-x="583" />
<glyph unicode="&#x2005;" horiz-adv-x="437" />
<glyph unicode="&#x2006;" horiz-adv-x="291" />
<glyph unicode="&#x2007;" horiz-adv-x="291" />
<glyph unicode="&#x2008;" horiz-adv-x="218" />
<glyph unicode="&#x2009;" horiz-adv-x="350" />
<glyph unicode="&#x200a;" horiz-adv-x="97" />
<glyph unicode="&#x2010;" horiz-adv-x="679" d="M88 412v213h504v-213h-504z" />
<glyph unicode="&#x2011;" horiz-adv-x="679" d="M88 412v213h504v-213h-504z" />
<glyph unicode="&#x2012;" horiz-adv-x="679" d="M88 412v213h504v-213h-504z" />
<glyph unicode="&#x2013;" horiz-adv-x="983" d="M88 422v192h807v-192h-807z" />
<glyph unicode="&#x2014;" horiz-adv-x="1638" d="M88 422v192h1462v-192h-1462z" />
<glyph unicode="&#x2018;" horiz-adv-x="614" d="M113 961q0 297 290 438l66 -131q-94 -47 -139 -108.5t-45 -151.5q6 2 20 2q66 0 112 -41.5t46 -108.5q0 -75 -44.5 -121.5t-113.5 -46.5q-94 0 -143 70.5t-49 198.5z" />
<glyph unicode="&#x2019;" horiz-adv-x="614" d="M145 852q95 47 140 108.5t45 151.5q-6 -2 -19 -2q-67 0 -112 41t-45 109q0 76 43.5 121.5t113.5 45.5q93 0 143 -70t50 -198q0 -295 -293 -438z" />
<glyph unicode="&#x201a;" horiz-adv-x="614" d="M145 -215q95 47 140 108.5t45 151.5q-6 -2 -19 -2q-67 0 -112 41t-45 109q0 76 43.5 121.5t113.5 45.5q93 0 143 -70t50 -198q0 -295 -293 -438z" />
<glyph unicode="&#x201c;" horiz-adv-x="1099" d="M113 961q0 297 290 438l66 -131q-94 -47 -139 -108.5t-45 -151.5q6 2 20 2q66 0 112 -41.5t46 -108.5q0 -75 -44.5 -121.5t-113.5 -46.5q-94 0 -143 70.5t-49 198.5zM596 961q0 295 293 438l65 -131q-94 -47 -139 -108.5t-45 -151.5q6 2 21 2q66 0 110.5 -41.5 t44.5 -108.5q0 -76 -43.5 -122t-111.5 -46q-94 0 -144.5 71t-50.5 198z" />
<glyph unicode="&#x201d;" horiz-adv-x="1099" d="M145 852q95 47 140 108.5t45 151.5q-6 -2 -19 -2q-67 0 -112 41t-45 109q0 76 43.5 121.5t113.5 45.5q93 0 143 -70t50 -198q0 -295 -293 -438zM631 852q94 47 139 108.5t45 151.5q-6 -2 -20 -2q-66 0 -112 41.5t-46 108.5q0 75 44.5 121t113.5 46q94 0 143 -69.5 t49 -198.5q0 -296 -291 -438z" />
<glyph unicode="&#x201e;" horiz-adv-x="1099" d="M145 -215q95 47 140 108.5t45 151.5q-6 -2 -19 -2q-67 0 -112 41t-45 109q0 76 43.5 121.5t113.5 45.5q93 0 143 -70t50 -198q0 -295 -293 -438zM631 -215q94 47 139 108.5t45 151.5q-6 -2 -20 -2q-66 0 -112 41.5t-46 108.5q0 75 44.5 121t113.5 46q94 0 143 -69.5 t49 -198.5q0 -296 -291 -438z" />
<glyph unicode="&#x2026;" horiz-adv-x="2002" d="M158 164q0 82 51 136t129 54t130 -54t52 -136q0 -80 -52 -134.5t-130 -54.5q-77 0 -128.5 54.5t-51.5 134.5zM836 164q0 82 52 136t130 54t130 -54t52 -136q0 -80 -52 -134.5t-130 -54.5t-130 54.5t-52 134.5zM1516 164q0 82 51 136t129 54t130 -54t52 -136 q0 -80 -52 -134.5t-130 -54.5q-77 0 -128.5 54.5t-51.5 134.5z" />
<glyph unicode="&#x202f;" horiz-adv-x="350" />
<glyph unicode="&#x2039;" horiz-adv-x="598" d="M100 410v213l275 295l112 -91l-227 -311l227 -311l-112 -90z" />
<glyph unicode="&#x203a;" horiz-adv-x="598" d="M111 205l227 311l-227 311l112 91l275 -295v-213l-275 -295z" />
<glyph unicode="&#x205f;" horiz-adv-x="437" />
<glyph unicode="&#x20ac;" d="M43 440v142l111 8q-2 18 -2 53t2 53h-111v140l127 10q47 227 192 353t351 126q93 0 180.5 -42t153.5 -118l-168 -161q-88 88 -177 88q-87 0 -145.5 -63t-83.5 -181h438v-152h-456v-43q0 -41 2 -59h372v-154h-352q28 -113 87 -172t145 -59q107 0 188 110l166 -155 q-153 -189 -373 -189q-196 0 -335.5 120.5t-184.5 344.5h-127z" />
<glyph unicode="&#x2122;" horiz-adv-x="1396" d="M8 1206v178h551v-178h-178v-465h-195v465h-178zM647 741v643h227l78 -184l41 -137h8l43 137l76 184h230v-643h-191v197l23 236h-8l-109 -338h-133l-109 338h-8l23 -236v-197h-191z" />
<glyph unicode="&#x25fc;" horiz-adv-x="1013" d="M0 0v1014h1014v-1014h-1014z" />
<hkern u1="F" u2="&#x2122;" k="-23" />
<hkern u1="F" u2="&#xae;" k="-12" />
<hkern u1="F" u2="x" k="74" />
<hkern u1="F" u2="v" k="70" />
<hkern u1="F" u2="X" k="57" />
<hkern u1="F" u2="V" k="12" />
<hkern u1="F" u2="&#x2f;" k="98" />
<hkern u1="P" u2="&#xae;" k="-33" />
<hkern u1="P" u2="x" k="37" />
<hkern u1="P" u2="X" k="57" />
<hkern u1="P" u2="&#x2f;" k="102" />
<hkern u1="V" u2="&#x2122;" k="-119" />
<hkern u1="V" u2="&#xae;" k="-104" />
<hkern u1="V" u2="x" k="39" />
<hkern u1="V" u2="v" k="20" />
<hkern u1="V" u2="&#x2f;" k="55" />
<hkern u1="X" u2="&#x2122;" k="-41" />
<hkern u1="X" u2="&#xae;" k="25" />
<hkern u1="X" u2="x" k="20" />
<hkern u1="X" u2="v" k="53" />
<hkern u1="X" u2="&#x2a;" k="20" />
<hkern u1="\" u2="v" k="41" />
<hkern u1="\" u2="V" k="90" />
<hkern u1="v" u2="&#x2122;" k="-8" />
<hkern u1="v" u2="&#xae;" k="-55" />
<hkern u1="v" u2="V" k="16" />
<hkern u1="v" u2="&#x2f;" k="41" />
<hkern u1="x" u2="&#x2122;" k="-8" />
<hkern u1="x" u2="&#xae;" k="-23" />
<hkern u1="x" u2="X" k="20" />
<hkern u1="x" u2="V" k="33" />
<hkern u1="x" u2="&#x2a;" k="8" />
<hkern g1="exclam" 	g2="quoteright,quotedblright" 	k="106" />
<hkern g1="slash" 	g2="g" 	k="20" />
<hkern g1="slash" 	g2="j" 	k="-14" />
<hkern g1="slash" 	g2="A,Aogonek" 	k="82" />
<hkern g1="slash" 	g2="a,aogonek" 	k="57" />
<hkern g1="slash" 	g2="c,d,e,o,q,oacute,cacute,eogonek" 	k="33" />
<hkern g1="slash" 	g2="J" 	k="164" />
<hkern g1="slash" 	g2="i" 	k="-14" />
<hkern g1="slash" 	g2="t" 	k="10" />
<hkern g1="slash" 	g2="u" 	k="41" />
<hkern g1="A,Aogonek" 	g2="T" 	k="82" />
<hkern g1="A,Aogonek" 	g2="U" 	k="23" />
<hkern g1="A,Aogonek" 	g2="Y" 	k="37" />
<hkern g1="A,Aogonek" 	g2="y" 	k="37" />
<hkern g1="A,Aogonek" 	g2="quoteright,quotedblright" 	k="164" />
<hkern g1="A,Aogonek" 	g2="C,G,O,Q,Oacute,Cacute" 	k="20" />
<hkern g1="A,Aogonek" 	g2="f" 	k="20" />
<hkern g1="A,Aogonek" 	g2="t" 	k="37" />
<hkern g1="A,Aogonek" 	g2="asterisk" 	k="172" />
<hkern g1="A,Aogonek" 	g2="backslash" 	k="82" />
<hkern g1="A,Aogonek" 	g2="registered" 	k="193" />
<hkern g1="A,Aogonek" 	g2="trademark" 	k="147" />
<hkern g1="A,Aogonek" 	g2="V" 	k="37" />
<hkern g1="A,Aogonek" 	g2="X" 	k="12" />
<hkern g1="A,Aogonek" 	g2="question" 	k="74" />
<hkern g1="A,Aogonek" 	g2="quotedbl,quotesingle" 	k="147" />
<hkern g1="A,Aogonek" 	g2="quoteleft,quotedblleft" 	k="166" />
<hkern g1="A,Aogonek" 	g2="v" 	k="37" />
<hkern g1="A,Aogonek" 	g2="w" 	k="16" />
<hkern g1="B" 	g2="T" 	k="57" />
<hkern g1="B" 	g2="W" 	k="16" />
<hkern g1="B" 	g2="Y" 	k="37" />
<hkern g1="B" 	g2="y" 	k="37" />
<hkern g1="B" 	g2="S,Sacute" 	k="37" />
<hkern g1="B" 	g2="Z,Zacute,Zdotaccent" 	k="16" />
<hkern g1="B" 	g2="J" 	k="39" />
<hkern g1="B" 	g2="t" 	k="20" />
<hkern g1="B" 	g2="asterisk" 	k="61" />
<hkern g1="B" 	g2="trademark" 	k="41" />
<hkern g1="B" 	g2="V" 	k="27" />
<hkern g1="B" 	g2="X" 	k="16" />
<hkern g1="B" 	g2="v" 	k="37" />
<hkern g1="B" 	g2="w" 	k="20" />
<hkern g1="B" 	g2="x" 	k="20" />
<hkern g1="C,Cacute" 	g2="T" 	k="25" />
<hkern g1="C,Cacute" 	g2="U" 	k="37" />
<hkern g1="C,Cacute" 	g2="W" 	k="16" />
<hkern g1="C,Cacute" 	g2="Y" 	k="33" />
<hkern g1="C,Cacute" 	g2="g" 	k="41" />
<hkern g1="C,Cacute" 	g2="y" 	k="37" />
<hkern g1="C,Cacute" 	g2="S,Sacute" 	k="57" />
<hkern g1="C,Cacute" 	g2="Z,Zacute,Zdotaccent" 	k="20" />
<hkern g1="C,Cacute" 	g2="C,G,O,Q,Oacute,Cacute" 	k="76" />
<hkern g1="C,Cacute" 	g2="J" 	k="20" />
<hkern g1="C,Cacute" 	g2="t" 	k="37" />
<hkern g1="C,Cacute" 	g2="u" 	k="20" />
<hkern g1="C,Cacute" 	g2="registered" 	k="-8" />
<hkern g1="C,Cacute" 	g2="trademark" 	k="-12" />
<hkern g1="C,Cacute" 	g2="V" 	k="16" />
<hkern g1="C,Cacute" 	g2="X" 	k="16" />
<hkern g1="C,Cacute" 	g2="v" 	k="37" />
<hkern g1="C,Cacute" 	g2="w" 	k="20" />
<hkern g1="C,Cacute" 	g2="hyphen,endash,emdash" 	k="74" />
<hkern g1="C,Cacute" 	g2="guillemotleft,guilsinglleft" 	k="37" />
<hkern g1="G" 	g2="T" 	k="41" />
<hkern g1="G" 	g2="W" 	k="16" />
<hkern g1="G" 	g2="A,Aogonek" 	k="16" />
<hkern g1="G" 	g2="asterisk" 	k="45" />
<hkern g1="G" 	g2="registered" 	k="25" />
<hkern g1="G" 	g2="trademark" 	k="20" />
<hkern g1="G" 	g2="V" 	k="37" />
<hkern g1="K" 	g2="T" 	k="53" />
<hkern g1="K" 	g2="U" 	k="37" />
<hkern g1="K" 	g2="W" 	k="20" />
<hkern g1="K" 	g2="Y" 	k="53" />
<hkern g1="K" 	g2="j" 	k="20" />
<hkern g1="K" 	g2="y" 	k="70" />
<hkern g1="K" 	g2="quoteright,quotedblright" 	k="98" />
<hkern g1="K" 	g2="A,Aogonek" 	k="20" />
<hkern g1="K" 	g2="S,Sacute" 	k="43" />
<hkern g1="K" 	g2="C,G,O,Q,Oacute,Cacute" 	k="57" />
<hkern g1="K" 	g2="c,d,e,o,q,oacute,cacute,eogonek" 	k="33" />
<hkern g1="K" 	g2="t" 	k="74" />
<hkern g1="K" 	g2="u" 	k="23" />
<hkern g1="K" 	g2="asterisk" 	k="70" />
<hkern g1="K" 	g2="registered" 	k="57" />
<hkern g1="K" 	g2="trademark" 	k="-8" />
<hkern g1="K" 	g2="V" 	k="37" />
<hkern g1="K" 	g2="question" 	k="33" />
<hkern g1="K" 	g2="quotedbl,quotesingle" 	k="70" />
<hkern g1="K" 	g2="quoteleft,quotedblleft" 	k="98" />
<hkern g1="K" 	g2="v" 	k="70" />
<hkern g1="K" 	g2="w" 	k="53" />
<hkern g1="K" 	g2="x" 	k="53" />
<hkern g1="K" 	g2="hyphen,endash,emdash" 	k="106" />
<hkern g1="K" 	g2="guillemotleft,guilsinglleft" 	k="20" />
<hkern g1="K" 	g2="z,zacute,zdotaccent" 	k="37" />
<hkern g1="L,Lslash" 	g2="T" 	k="246" />
<hkern g1="L,Lslash" 	g2="U" 	k="76" />
<hkern g1="L,Lslash" 	g2="W" 	k="121" />
<hkern g1="L,Lslash" 	g2="Y" 	k="176" />
<hkern g1="L,Lslash" 	g2="g" 	k="16" />
<hkern g1="L,Lslash" 	g2="y" 	k="109" />
<hkern g1="L,Lslash" 	g2="quoteright,quotedblright" 	k="221" />
<hkern g1="L,Lslash" 	g2="A,Aogonek" 	k="12" />
<hkern g1="L,Lslash" 	g2="S,Sacute" 	k="57" />
<hkern g1="L,Lslash" 	g2="C,G,O,Q,Oacute,Cacute" 	k="74" />
<hkern g1="L,Lslash" 	g2="f" 	k="37" />
<hkern g1="L,Lslash" 	g2="c,d,e,o,q,oacute,cacute,eogonek" 	k="29" />
<hkern g1="L,Lslash" 	g2="t" 	k="55" />
<hkern g1="L,Lslash" 	g2="u" 	k="20" />
<hkern g1="L,Lslash" 	g2="asterisk" 	k="352" />
<hkern g1="L,Lslash" 	g2="backslash" 	k="164" />
<hkern g1="L,Lslash" 	g2="registered" 	k="229" />
<hkern g1="L,Lslash" 	g2="trademark" 	k="262" />
<hkern g1="L,Lslash" 	g2="V" 	k="162" />
<hkern g1="L,Lslash" 	g2="question" 	k="106" />
<hkern g1="L,Lslash" 	g2="quotedbl,quotesingle" 	k="287" />
<hkern g1="L,Lslash" 	g2="quoteleft,quotedblleft" 	k="221" />
<hkern g1="L,Lslash" 	g2="v" 	k="109" />
<hkern g1="L,Lslash" 	g2="w" 	k="78" />
<hkern g1="L,Lslash" 	g2="hyphen,endash,emdash" 	k="90" />
<hkern g1="L,Lslash" 	g2="guillemotleft,guilsinglleft" 	k="49" />
<hkern g1="D,O,Q,Oacute" 	g2="T" 	k="41" />
<hkern g1="D,O,Q,Oacute" 	g2="Y" 	k="41" />
<hkern g1="D,O,Q,Oacute" 	g2="A,Aogonek" 	k="20" />
<hkern g1="D,O,Q,Oacute" 	g2="Z,Zacute,Zdotaccent" 	k="41" />
<hkern g1="D,O,Q,Oacute" 	g2="J" 	k="111" />
<hkern g1="D,O,Q,Oacute" 	g2="asterisk" 	k="49" />
<hkern g1="D,O,Q,Oacute" 	g2="trademark" 	k="74" />
<hkern g1="D,O,Q,Oacute" 	g2="slash" 	k="8" />
<hkern g1="D,O,Q,Oacute" 	g2="V" 	k="20" />
<hkern g1="D,O,Q,Oacute" 	g2="X" 	k="53" />
<hkern g1="D,O,Q,Oacute" 	g2="z,zacute,zdotaccent" 	k="33" />
<hkern g1="R" 	g2="T" 	k="41" />
<hkern g1="R" 	g2="Y" 	k="37" />
<hkern g1="R" 	g2="g" 	k="20" />
<hkern g1="R" 	g2="A,Aogonek" 	k="20" />
<hkern g1="R" 	g2="S,Sacute" 	k="29" />
<hkern g1="R" 	g2="Z,Zacute,Zdotaccent" 	k="20" />
<hkern g1="R" 	g2="a,aogonek" 	k="20" />
<hkern g1="R" 	g2="c,d,e,o,q,oacute,cacute,eogonek" 	k="20" />
<hkern g1="R" 	g2="J" 	k="25" />
<hkern g1="R" 	g2="asterisk" 	k="20" />
<hkern g1="R" 	g2="registered" 	k="-8" />
<hkern g1="R" 	g2="V" 	k="37" />
<hkern g1="R" 	g2="X" 	k="20" />
<hkern g1="R" 	g2="x" 	k="37" />
<hkern g1="R" 	g2="hyphen,endash,emdash" 	k="66" />
<hkern g1="R" 	g2="guillemotleft,guilsinglleft" 	k="61" />
<hkern g1="R" 	g2="z,zacute,zdotaccent" 	k="37" />
<hkern g1="R" 	g2="guillemotright,guilsinglright" 	k="37" />
<hkern g1="S,Sacute" 	g2="T" 	k="41" />
<hkern g1="S,Sacute" 	g2="Y" 	k="33" />
<hkern g1="S,Sacute" 	g2="S,Sacute" 	k="37" />
<hkern g1="S,Sacute" 	g2="J" 	k="37" />
<hkern g1="S,Sacute" 	g2="asterisk" 	k="25" />
<hkern g1="S,Sacute" 	g2="registered" 	k="12" />
<hkern g1="S,Sacute" 	g2="z,zacute,zdotaccent" 	k="29" />
<hkern g1="T" 	g2="Y" 	k="37" />
<hkern g1="T" 	g2="g" 	k="131" />
<hkern g1="T" 	g2="y" 	k="49" />
<hkern g1="T" 	g2="comma,period,ellipsis" 	k="238" />
<hkern g1="T" 	g2="A,Aogonek" 	k="82" />
<hkern g1="T" 	g2="S,Sacute" 	k="51" />
<hkern g1="T" 	g2="Z,Zacute,Zdotaccent" 	k="90" />
<hkern g1="T" 	g2="C,G,O,Q,Oacute,Cacute" 	k="57" />
<hkern g1="T" 	g2="a,aogonek" 	k="131" />
<hkern g1="T" 	g2="f" 	k="25" />
<hkern g1="T" 	g2="c,d,e,o,q,oacute,cacute,eogonek" 	k="156" />
<hkern g1="T" 	g2="J" 	k="250" />
<hkern g1="T" 	g2="t" 	k="25" />
<hkern g1="T" 	g2="u" 	k="86" />
<hkern g1="T" 	g2="registered" 	k="-41" />
<hkern g1="T" 	g2="trademark" 	k="-49" />
<hkern g1="T" 	g2="slash" 	k="139" />
<hkern g1="T" 	g2="X" 	k="41" />
<hkern g1="T" 	g2="v" 	k="49" />
<hkern g1="T" 	g2="w" 	k="49" />
<hkern g1="T" 	g2="x" 	k="51" />
<hkern g1="T" 	g2="hyphen,endash,emdash" 	k="164" />
<hkern g1="T" 	g2="guillemotleft,guilsinglleft" 	k="115" />
<hkern g1="T" 	g2="m,n,p,r,nacute" 	k="86" />
<hkern g1="T" 	g2="s,sacute" 	k="123" />
<hkern g1="T" 	g2="z,zacute,zdotaccent" 	k="131" />
<hkern g1="T" 	g2="guillemotright,guilsinglright" 	k="82" />
<hkern g1="U" 	g2="Y" 	k="37" />
<hkern g1="U" 	g2="g" 	k="20" />
<hkern g1="U" 	g2="comma,period,ellipsis" 	k="53" />
<hkern g1="U" 	g2="A,Aogonek" 	k="25" />
<hkern g1="U" 	g2="S,Sacute" 	k="20" />
<hkern g1="U" 	g2="a,aogonek" 	k="16" />
<hkern g1="U" 	g2="J" 	k="115" />
<hkern g1="U" 	g2="slash" 	k="33" />
<hkern g1="U" 	g2="V" 	k="20" />
<hkern g1="U" 	g2="X" 	k="20" />
<hkern g1="U" 	g2="x" 	k="33" />
<hkern g1="U" 	g2="s,sacute" 	k="16" />
<hkern g1="W" 	g2="g" 	k="8" />
<hkern g1="W" 	g2="comma,period,ellipsis" 	k="78" />
<hkern g1="W" 	g2="a,aogonek" 	k="25" />
<hkern g1="W" 	g2="J" 	k="96" />
<hkern g1="W" 	g2="registered" 	k="-51" />
<hkern g1="W" 	g2="trademark" 	k="-78" />
<hkern g1="W" 	g2="slash" 	k="16" />
<hkern g1="W" 	g2="hyphen,endash,emdash" 	k="16" />
<hkern g1="W" 	g2="guillemotleft,guilsinglleft" 	k="20" />
<hkern g1="W" 	g2="z,zacute,zdotaccent" 	k="20" />
<hkern g1="W" 	g2="guillemotright,guilsinglright" 	k="53" />
<hkern g1="Y" 	g2="T" 	k="37" />
<hkern g1="Y" 	g2="U" 	k="20" />
<hkern g1="Y" 	g2="g" 	k="123" />
<hkern g1="Y" 	g2="y" 	k="37" />
<hkern g1="Y" 	g2="quoteright,quotedblright" 	k="10" />
<hkern g1="Y" 	g2="comma,period,ellipsis" 	k="229" />
<hkern g1="Y" 	g2="A,Aogonek" 	k="37" />
<hkern g1="Y" 	g2="S,Sacute" 	k="39" />
<hkern g1="Y" 	g2="Z,Zacute,Zdotaccent" 	k="45" />
<hkern g1="Y" 	g2="C,G,O,Q,Oacute,Cacute" 	k="37" />
<hkern g1="Y" 	g2="a,aogonek" 	k="156" />
<hkern g1="Y" 	g2="c,d,e,o,q,oacute,cacute,eogonek" 	k="113" />
<hkern g1="Y" 	g2="J" 	k="205" />
<hkern g1="Y" 	g2="t" 	k="37" />
<hkern g1="Y" 	g2="u" 	k="78" />
<hkern g1="Y" 	g2="registered" 	k="-49" />
<hkern g1="Y" 	g2="trademark" 	k="-86" />
<hkern g1="Y" 	g2="slash" 	k="96" />
<hkern g1="Y" 	g2="question" 	k="33" />
<hkern g1="Y" 	g2="v" 	k="37" />
<hkern g1="Y" 	g2="w" 	k="57" />
<hkern g1="Y" 	g2="x" 	k="78" />
<hkern g1="Y" 	g2="hyphen,endash,emdash" 	k="156" />
<hkern g1="Y" 	g2="guillemotleft,guilsinglleft" 	k="150" />
<hkern g1="Y" 	g2="m,n,p,r,nacute" 	k="82" />
<hkern g1="Y" 	g2="s,sacute" 	k="113" />
<hkern g1="Y" 	g2="z,zacute,zdotaccent" 	k="115" />
<hkern g1="Y" 	g2="guillemotright,guilsinglright" 	k="143" />
<hkern g1="Y" 	g2="colon,semicolon" 	k="74" />
<hkern g1="Z,Zacute,Zdotaccent" 	g2="U" 	k="20" />
<hkern g1="Z,Zacute,Zdotaccent" 	g2="Y" 	k="37" />
<hkern g1="Z,Zacute,Zdotaccent" 	g2="g" 	k="23" />
<hkern g1="Z,Zacute,Zdotaccent" 	g2="y" 	k="25" />
<hkern g1="Z,Zacute,Zdotaccent" 	g2="S,Sacute" 	k="61" />
<hkern g1="Z,Zacute,Zdotaccent" 	g2="Z,Zacute,Zdotaccent" 	k="20" />
<hkern g1="Z,Zacute,Zdotaccent" 	g2="C,G,O,Q,Oacute,Cacute" 	k="41" />
<hkern g1="Z,Zacute,Zdotaccent" 	g2="a,aogonek" 	k="25" />
<hkern g1="Z,Zacute,Zdotaccent" 	g2="f" 	k="41" />
<hkern g1="Z,Zacute,Zdotaccent" 	g2="c,d,e,o,q,oacute,cacute,eogonek" 	k="27" />
<hkern g1="Z,Zacute,Zdotaccent" 	g2="J" 	k="49" />
<hkern g1="Z,Zacute,Zdotaccent" 	g2="t" 	k="37" />
<hkern g1="Z,Zacute,Zdotaccent" 	g2="u" 	k="29" />
<hkern g1="Z,Zacute,Zdotaccent" 	g2="registered" 	k="-41" />
<hkern g1="Z,Zacute,Zdotaccent" 	g2="trademark" 	k="-41" />
<hkern g1="Z,Zacute,Zdotaccent" 	g2="v" 	k="25" />
<hkern g1="Z,Zacute,Zdotaccent" 	g2="w" 	k="25" />
<hkern g1="Z,Zacute,Zdotaccent" 	g2="hyphen,endash,emdash" 	k="49" />
<hkern g1="Z,Zacute,Zdotaccent" 	g2="guillemotleft,guilsinglleft" 	k="49" />
<hkern g1="a,aogonek" 	g2="T" 	k="57" />
<hkern g1="a,aogonek" 	g2="W" 	k="16" />
<hkern g1="a,aogonek" 	g2="Y" 	k="57" />
<hkern g1="a,aogonek" 	g2="quoteright,quotedblright" 	k="53" />
<hkern g1="a,aogonek" 	g2="asterisk" 	k="90" />
<hkern g1="a,aogonek" 	g2="V" 	k="53" />
<hkern g1="a,aogonek" 	g2="question" 	k="66" />
<hkern g1="c,cacute" 	g2="T" 	k="41" />
<hkern g1="c,cacute" 	g2="Y" 	k="57" />
<hkern g1="c,cacute" 	g2="g" 	k="20" />
<hkern g1="c,cacute" 	g2="a,aogonek" 	k="20" />
<hkern g1="c,cacute" 	g2="c,d,e,o,q,oacute,cacute,eogonek" 	k="57" />
<hkern g1="c,cacute" 	g2="registered" 	k="-12" />
<hkern g1="c,cacute" 	g2="V" 	k="37" />
<hkern g1="c,cacute" 	g2="x" 	k="10" />
<hkern g1="c,cacute" 	g2="hyphen,endash,emdash" 	k="70" />
<hkern g1="colon,semicolon" 	g2="Y" 	k="74" />
<hkern g1="colon,semicolon" 	g2="j" 	k="-8" />
<hkern g1="colon,semicolon" 	g2="asterisk" 	k="57" />
<hkern g1="comma,period,ellipsis" 	g2="T" 	k="238" />
<hkern g1="comma,period,ellipsis" 	g2="U" 	k="55" />
<hkern g1="comma,period,ellipsis" 	g2="W" 	k="78" />
<hkern g1="comma,period,ellipsis" 	g2="Y" 	k="229" />
<hkern g1="comma,period,ellipsis" 	g2="j" 	k="-74" />
<hkern g1="comma,period,ellipsis" 	g2="y" 	k="41" />
<hkern g1="comma,period,ellipsis" 	g2="quoteright,quotedblright" 	k="297" />
<hkern g1="comma,period,ellipsis" 	g2="t" 	k="45" />
<hkern g1="comma,period,ellipsis" 	g2="asterisk" 	k="344" />
<hkern g1="comma,period,ellipsis" 	g2="V" 	k="188" />
<hkern g1="comma,period,ellipsis" 	g2="quotedbl,quotesingle" 	k="262" />
<hkern g1="comma,period,ellipsis" 	g2="quoteleft,quotedblleft" 	k="256" />
<hkern g1="comma,period,ellipsis" 	g2="v" 	k="123" />
<hkern g1="comma,period,ellipsis" 	g2="w" 	k="72" />
<hkern g1="e,eogonek" 	g2="T" 	k="57" />
<hkern g1="e,eogonek" 	g2="W" 	k="20" />
<hkern g1="e,eogonek" 	g2="Y" 	k="74" />
<hkern g1="e,eogonek" 	g2="g" 	k="20" />
<hkern g1="e,eogonek" 	g2="y" 	k="12" />
<hkern g1="e,eogonek" 	g2="quoteright,quotedblright" 	k="20" />
<hkern g1="e,eogonek" 	g2="S,Sacute" 	k="41" />
<hkern g1="e,eogonek" 	g2="a,aogonek" 	k="23" />
<hkern g1="e,eogonek" 	g2="f" 	k="10" />
<hkern g1="e,eogonek" 	g2="J" 	k="41" />
<hkern g1="e,eogonek" 	g2="t" 	k="37" />
<hkern g1="e,eogonek" 	g2="asterisk" 	k="49" />
<hkern g1="e,eogonek" 	g2="backslash" 	k="70" />
<hkern g1="e,eogonek" 	g2="registered" 	k="31" />
<hkern g1="e,eogonek" 	g2="trademark" 	k="53" />
<hkern g1="e,eogonek" 	g2="V" 	k="53" />
<hkern g1="e,eogonek" 	g2="question" 	k="33" />
<hkern g1="e,eogonek" 	g2="v" 	k="12" />
<hkern g1="e,eogonek" 	g2="w" 	k="12" />
<hkern g1="e,eogonek" 	g2="x" 	k="33" />
<hkern g1="e,eogonek" 	g2="guillemotleft,guilsinglleft" 	k="31" />
<hkern g1="f" 	g2="T" 	k="-86" />
<hkern g1="f" 	g2="W" 	k="-86" />
<hkern g1="f" 	g2="Y" 	k="-86" />
<hkern g1="f" 	g2="g" 	k="23" />
<hkern g1="f" 	g2="j" 	k="20" />
<hkern g1="f" 	g2="quoteright,quotedblright" 	k="-49" />
<hkern g1="f" 	g2="comma,period,ellipsis" 	k="131" />
<hkern g1="f" 	g2="a,aogonek" 	k="41" />
<hkern g1="f" 	g2="c,d,e,o,q,oacute,cacute,eogonek" 	k="20" />
<hkern g1="f" 	g2="u" 	k="8" />
<hkern g1="f" 	g2="backslash" 	k="-66" />
<hkern g1="f" 	g2="registered" 	k="-102" />
<hkern g1="f" 	g2="trademark" 	k="-147" />
<hkern g1="f" 	g2="slash" 	k="8" />
<hkern g1="f" 	g2="exclam" 	k="-8" />
<hkern g1="f" 	g2="V" 	k="-119" />
<hkern g1="f" 	g2="X" 	k="-49" />
<hkern g1="f" 	g2="question" 	k="-45" />
<hkern g1="f" 	g2="quotedbl,quotesingle" 	k="-82" />
<hkern g1="f" 	g2="quoteleft,quotedblleft" 	k="-49" />
<hkern g1="f" 	g2="v" 	k="-8" />
<hkern g1="f" 	g2="x" 	k="16" />
<hkern g1="f" 	g2="hyphen,endash,emdash" 	k="37" />
<hkern g1="f" 	g2="s,sacute" 	k="16" />
<hkern g1="f" 	g2="z,zacute,zdotaccent" 	k="37" />
<hkern g1="f" 	g2="parenright,bracketright,braceright" 	k="-72" />
<hkern g1="g" 	g2="T" 	k="74" />
<hkern g1="g" 	g2="Y" 	k="37" />
<hkern g1="g" 	g2="j" 	k="-94" />
<hkern g1="g" 	g2="y" 	k="16" />
<hkern g1="g" 	g2="a,aogonek" 	k="39" />
<hkern g1="g" 	g2="c,d,e,o,q,oacute,cacute,eogonek" 	k="37" />
<hkern g1="g" 	g2="asterisk" 	k="49" />
<hkern g1="g" 	g2="registered" 	k="-8" />
<hkern g1="g" 	g2="slash" 	k="-57" />
<hkern g1="g" 	g2="question" 	k="94" />
<hkern g1="g" 	g2="v" 	k="16" />
<hkern g1="g" 	g2="w" 	k="16" />
<hkern g1="g" 	g2="z,zacute,zdotaccent" 	k="37" />
<hkern g1="g" 	g2="parenright,bracketright,braceright" 	k="-8" />
<hkern g1="k" 	g2="T" 	k="100" />
<hkern g1="k" 	g2="Y" 	k="37" />
<hkern g1="k" 	g2="g" 	k="20" />
<hkern g1="k" 	g2="j" 	k="20" />
<hkern g1="k" 	g2="quoteright,quotedblright" 	k="74" />
<hkern g1="k" 	g2="comma,period,ellipsis" 	k="-8" />
<hkern g1="k" 	g2="a,aogonek" 	k="20" />
<hkern g1="k" 	g2="c,d,e,o,q,oacute,cacute,eogonek" 	k="57" />
<hkern g1="k" 	g2="t" 	k="37" />
<hkern g1="k" 	g2="u" 	k="37" />
<hkern g1="k" 	g2="asterisk" 	k="8" />
<hkern g1="k" 	g2="registered" 	k="33" />
<hkern g1="k" 	g2="trademark" 	k="41" />
<hkern g1="k" 	g2="question" 	k="66" />
<hkern g1="k" 	g2="x" 	k="16" />
<hkern g1="k" 	g2="hyphen,endash,emdash" 	k="174" />
<hkern g1="k" 	g2="guillemotleft,guilsinglleft" 	k="74" />
<hkern g1="k" 	g2="z,zacute,zdotaccent" 	k="33" />
<hkern g1="k" 	g2="guillemotright,guilsinglright" 	k="33" />
<hkern g1="h,m,n,nacute" 	g2="T" 	k="57" />
<hkern g1="h,m,n,nacute" 	g2="Y" 	k="53" />
<hkern g1="h,m,n,nacute" 	g2="asterisk" 	k="49" />
<hkern g1="h,m,n,nacute" 	g2="trademark" 	k="41" />
<hkern g1="h,m,n,nacute" 	g2="V" 	k="20" />
<hkern g1="h,m,n,nacute" 	g2="question" 	k="33" />
<hkern g1="b,o,p,oacute" 	g2="T" 	k="121" />
<hkern g1="b,o,p,oacute" 	g2="Y" 	k="115" />
<hkern g1="b,o,p,oacute" 	g2="y" 	k="16" />
<hkern g1="b,o,p,oacute" 	g2="quoteright,quotedblright" 	k="74" />
<hkern g1="b,o,p,oacute" 	g2="comma,period,ellipsis" 	k="20" />
<hkern g1="b,o,p,oacute" 	g2="a,aogonek" 	k="23" />
<hkern g1="b,o,p,oacute" 	g2="f" 	k="10" />
<hkern g1="b,o,p,oacute" 	g2="backslash" 	k="74" />
<hkern g1="b,o,p,oacute" 	g2="registered" 	k="33" />
<hkern g1="b,o,p,oacute" 	g2="V" 	k="41" />
<hkern g1="b,o,p,oacute" 	g2="X" 	k="16" />
<hkern g1="b,o,p,oacute" 	g2="question" 	k="66" />
<hkern g1="b,o,p,oacute" 	g2="quoteleft,quotedblleft" 	k="8" />
<hkern g1="b,o,p,oacute" 	g2="v" 	k="16" />
<hkern g1="b,o,p,oacute" 	g2="w" 	k="16" />
<hkern g1="b,o,p,oacute" 	g2="x" 	k="53" />
<hkern g1="b,o,p,oacute" 	g2="s,sacute" 	k="10" />
<hkern g1="b,o,p,oacute" 	g2="z,zacute,zdotaccent" 	k="27" />
<hkern g1="quoteleft,quotedblleft" 	g2="Y" 	k="10" />
<hkern g1="quoteleft,quotedblleft" 	g2="g" 	k="49" />
<hkern g1="quoteleft,quotedblleft" 	g2="comma,period,ellipsis" 	k="254" />
<hkern g1="quoteleft,quotedblleft" 	g2="A,Aogonek" 	k="164" />
<hkern g1="quoteleft,quotedblleft" 	g2="a,aogonek" 	k="70" />
<hkern g1="quoteleft,quotedblleft" 	g2="f" 	k="37" />
<hkern g1="quoteleft,quotedblleft" 	g2="c,d,e,o,q,oacute,cacute,eogonek" 	k="49" />
<hkern g1="quoteleft,quotedblleft" 	g2="X" 	k="33" />
<hkern g1="r" 	g2="g" 	k="20" />
<hkern g1="r" 	g2="y" 	k="-10" />
<hkern g1="r" 	g2="quoteright,quotedblright" 	k="33" />
<hkern g1="r" 	g2="comma,period,ellipsis" 	k="180" />
<hkern g1="r" 	g2="A,Aogonek" 	k="41" />
<hkern g1="r" 	g2="Z,Zacute,Zdotaccent" 	k="20" />
<hkern g1="r" 	g2="a,aogonek" 	k="59" />
<hkern g1="r" 	g2="c,d,e,o,q,oacute,cacute,eogonek" 	k="20" />
<hkern g1="r" 	g2="J" 	k="150" />
<hkern g1="r" 	g2="backslash" 	k="-8" />
<hkern g1="r" 	g2="registered" 	k="-66" />
<hkern g1="r" 	g2="slash" 	k="49" />
<hkern g1="r" 	g2="quoteleft,quotedblleft" 	k="-49" />
<hkern g1="r" 	g2="v" 	k="-10" />
<hkern g1="r" 	g2="w" 	k="-8" />
<hkern g1="r" 	g2="hyphen,endash,emdash" 	k="57" />
<hkern g1="r" 	g2="guillemotleft,guilsinglleft" 	k="41" />
<hkern g1="r" 	g2="s,sacute" 	k="20" />
<hkern g1="r" 	g2="z,zacute,zdotaccent" 	k="20" />
<hkern g1="s,sacute" 	g2="T" 	k="57" />
<hkern g1="s,sacute" 	g2="Y" 	k="41" />
<hkern g1="s,sacute" 	g2="quoteright,quotedblright" 	k="51" />
<hkern g1="s,sacute" 	g2="asterisk" 	k="57" />
<hkern g1="s,sacute" 	g2="V" 	k="20" />
<hkern g1="s,sacute" 	g2="question" 	k="51" />
<hkern g1="s,sacute" 	g2="hyphen,endash,emdash" 	k="-20" />
<hkern g1="t" 	g2="T" 	k="37" />
<hkern g1="t" 	g2="Y" 	k="16" />
<hkern g1="t" 	g2="g" 	k="20" />
<hkern g1="t" 	g2="comma,period,ellipsis" 	k="-8" />
<hkern g1="t" 	g2="a,aogonek" 	k="25" />
<hkern g1="t" 	g2="c,d,e,o,q,oacute,cacute,eogonek" 	k="20" />
<hkern g1="t" 	g2="registered" 	k="-49" />
<hkern g1="t" 	g2="slash" 	k="-8" />
<hkern g1="t" 	g2="question" 	k="74" />
<hkern g1="t" 	g2="hyphen,endash,emdash" 	k="74" />
<hkern g1="t" 	g2="guillemotleft,guilsinglleft" 	k="25" />
<hkern g1="t" 	g2="colon,semicolon" 	k="-8" />
<hkern g1="q,u" 	g2="T" 	k="41" />
<hkern g1="q,u" 	g2="Y" 	k="61" />
<hkern g1="q,u" 	g2="asterisk" 	k="29" />
<hkern g1="q,u" 	g2="V" 	k="37" />
<hkern g1="w" 	g2="T" 	k="57" />
<hkern g1="w" 	g2="Y" 	k="51" />
<hkern g1="w" 	g2="j" 	k="20" />
<hkern g1="w" 	g2="comma,period,ellipsis" 	k="170" />
<hkern g1="w" 	g2="A,Aogonek" 	k="16" />
<hkern g1="w" 	g2="a,aogonek" 	k="20" />
<hkern g1="w" 	g2="c,d,e,o,q,oacute,cacute,eogonek" 	k="16" />
<hkern g1="w" 	g2="J" 	k="61" />
<hkern g1="w" 	g2="registered" 	k="-23" />
<hkern g1="w" 	g2="trademark" 	k="-8" />
<hkern g1="w" 	g2="V" 	k="16" />
<hkern g1="w" 	g2="X" 	k="37" />
<hkern g1="w" 	g2="z,zacute,zdotaccent" 	k="53" />
<hkern g1="y" 	g2="T" 	k="41" />
<hkern g1="y" 	g2="Y" 	k="33" />
<hkern g1="y" 	g2="j" 	k="20" />
<hkern g1="y" 	g2="comma,period,ellipsis" 	k="123" />
<hkern g1="y" 	g2="a,aogonek" 	k="41" />
<hkern g1="y" 	g2="c,d,e,o,q,oacute,cacute,eogonek" 	k="16" />
<hkern g1="y" 	g2="J" 	k="82" />
<hkern g1="y" 	g2="registered" 	k="-55" />
<hkern g1="y" 	g2="trademark" 	k="-8" />
<hkern g1="y" 	g2="slash" 	k="8" />
<hkern g1="y" 	g2="V" 	k="16" />
<hkern g1="y" 	g2="X" 	k="16" />
<hkern g1="y" 	g2="z,zacute,zdotaccent" 	k="57" />
<hkern g1="z,zacute,zdotaccent" 	g2="T" 	k="45" />
<hkern g1="z,zacute,zdotaccent" 	g2="Y" 	k="16" />
<hkern g1="z,zacute,zdotaccent" 	g2="y" 	k="16" />
<hkern g1="z,zacute,zdotaccent" 	g2="a,aogonek" 	k="29" />
<hkern g1="z,zacute,zdotaccent" 	g2="c,d,e,o,q,oacute,cacute,eogonek" 	k="20" />
<hkern g1="z,zacute,zdotaccent" 	g2="u" 	k="20" />
<hkern g1="z,zacute,zdotaccent" 	g2="registered" 	k="-14" />
<hkern g1="z,zacute,zdotaccent" 	g2="trademark" 	k="-8" />
<hkern g1="z,zacute,zdotaccent" 	g2="v" 	k="16" />
<hkern g1="z,zacute,zdotaccent" 	g2="hyphen,endash,emdash" 	k="53" />
<hkern g1="F" 	g2="W" 	k="12" />
<hkern g1="F" 	g2="Y" 	k="29" />
<hkern g1="F" 	g2="g" 	k="57" />
<hkern g1="F" 	g2="y" 	k="53" />
<hkern g1="F" 	g2="comma,period,ellipsis" 	k="188" />
<hkern g1="F" 	g2="A,Aogonek" 	k="80" />
<hkern g1="F" 	g2="S,Sacute" 	k="55" />
<hkern g1="F" 	g2="Z,Zacute,Zdotaccent" 	k="61" />
<hkern g1="F" 	g2="C,G,O,Q,Oacute,Cacute" 	k="20" />
<hkern g1="F" 	g2="a,aogonek" 	k="78" />
<hkern g1="F" 	g2="c,d,e,o,q,oacute,cacute,eogonek" 	k="37" />
<hkern g1="F" 	g2="J" 	k="274" />
<hkern g1="F" 	g2="t" 	k="20" />
<hkern g1="F" 	g2="u" 	k="39" />
<hkern g1="F" 	g2="w" 	k="53" />
<hkern g1="F" 	g2="guillemotleft,guilsinglleft" 	k="41" />
<hkern g1="F" 	g2="m,n,p,r,nacute" 	k="41" />
<hkern g1="F" 	g2="s,sacute" 	k="55" />
<hkern g1="F" 	g2="z,zacute,zdotaccent" 	k="106" />
<hkern g1="J" 	g2="comma,period,ellipsis" 	k="57" />
<hkern g1="J" 	g2="J" 	k="82" />
<hkern g1="P" 	g2="T" 	k="29" />
<hkern g1="P" 	g2="Y" 	k="20" />
<hkern g1="P" 	g2="g" 	k="33" />
<hkern g1="P" 	g2="comma,period,ellipsis" 	k="270" />
<hkern g1="P" 	g2="A,Aogonek" 	k="102" />
<hkern g1="P" 	g2="S,Sacute" 	k="20" />
<hkern g1="P" 	g2="Z,Zacute,Zdotaccent" 	k="104" />
<hkern g1="P" 	g2="a,aogonek" 	k="70" />
<hkern g1="P" 	g2="c,d,e,o,q,oacute,cacute,eogonek" 	k="43" />
<hkern g1="P" 	g2="J" 	k="291" />
<hkern g1="P" 	g2="hyphen,endash,emdash" 	k="14" />
<hkern g1="P" 	g2="guillemotleft,guilsinglleft" 	k="41" />
<hkern g1="P" 	g2="s,sacute" 	k="20" />
<hkern g1="P" 	g2="z,zacute,zdotaccent" 	k="41" />
<hkern g1="V" 	g2="U" 	k="20" />
<hkern g1="V" 	g2="g" 	k="41" />
<hkern g1="V" 	g2="y" 	k="20" />
<hkern g1="V" 	g2="comma,period,ellipsis" 	k="156" />
<hkern g1="V" 	g2="A,Aogonek" 	k="37" />
<hkern g1="V" 	g2="S,Sacute" 	k="25" />
<hkern g1="V" 	g2="Z,Zacute,Zdotaccent" 	k="41" />
<hkern g1="V" 	g2="C,G,O,Q,Oacute,Cacute" 	k="20" />
<hkern g1="V" 	g2="a,aogonek" 	k="72" />
<hkern g1="V" 	g2="c,d,e,o,q,oacute,cacute,eogonek" 	k="39" />
<hkern g1="V" 	g2="J" 	k="131" />
<hkern g1="V" 	g2="u" 	k="61" />
<hkern g1="V" 	g2="w" 	k="20" />
<hkern g1="V" 	g2="hyphen,endash,emdash" 	k="41" />
<hkern g1="V" 	g2="guillemotleft,guilsinglleft" 	k="41" />
<hkern g1="V" 	g2="m,n,p,r,nacute" 	k="41" />
<hkern g1="V" 	g2="s,sacute" 	k="37" />
<hkern g1="V" 	g2="z,zacute,zdotaccent" 	k="43" />
<hkern g1="V" 	g2="guillemotright,guilsinglright" 	k="55" />
<hkern g1="X" 	g2="T" 	k="41" />
<hkern g1="X" 	g2="U" 	k="20" />
<hkern g1="X" 	g2="y" 	k="53" />
<hkern g1="X" 	g2="quoteright,quotedblright" 	k="33" />
<hkern g1="X" 	g2="A,Aogonek" 	k="12" />
<hkern g1="X" 	g2="S,Sacute" 	k="37" />
<hkern g1="X" 	g2="C,G,O,Q,Oacute,Cacute" 	k="53" />
<hkern g1="X" 	g2="a,aogonek" 	k="20" />
<hkern g1="X" 	g2="f" 	k="53" />
<hkern g1="X" 	g2="c,d,e,o,q,oacute,cacute,eogonek" 	k="33" />
<hkern g1="X" 	g2="J" 	k="33" />
<hkern g1="X" 	g2="t" 	k="53" />
<hkern g1="X" 	g2="u" 	k="20" />
<hkern g1="X" 	g2="quotedbl,quotesingle" 	k="16" />
<hkern g1="X" 	g2="quoteleft,quotedblleft" 	k="33" />
<hkern g1="X" 	g2="w" 	k="37" />
<hkern g1="X" 	g2="hyphen,endash,emdash" 	k="74" />
<hkern g1="X" 	g2="guillemotleft,guilsinglleft" 	k="37" />
<hkern g1="X" 	g2="z,zacute,zdotaccent" 	k="37" />
<hkern g1="X" 	g2="guillemotright,guilsinglright" 	k="33" />
<hkern g1="parenleft,bracketleft,braceleft" 	g2="j" 	k="-164" />
<hkern g1="parenleft,bracketleft,braceleft" 	g2="J" 	k="41" />
<hkern g1="hyphen,endash,emdash" 	g2="T" 	k="14" />
<hkern g1="hyphen,endash,emdash" 	g2="W" 	k="16" />
<hkern g1="hyphen,endash,emdash" 	g2="Y" 	k="156" />
<hkern g1="hyphen,endash,emdash" 	g2="Z,Zacute,Zdotaccent" 	k="41" />
<hkern g1="hyphen,endash,emdash" 	g2="V" 	k="74" />
<hkern g1="hyphen,endash,emdash" 	g2="X" 	k="74" />
<hkern g1="hyphen,endash,emdash" 	g2="v" 	k="16" />
<hkern g1="hyphen,endash,emdash" 	g2="x" 	k="37" />
<hkern g1="guillemotleft,guilsinglleft" 	g2="T" 	k="82" />
<hkern g1="guillemotleft,guilsinglleft" 	g2="W" 	k="53" />
<hkern g1="guillemotleft,guilsinglleft" 	g2="Y" 	k="143" />
<hkern g1="guillemotleft,guilsinglleft" 	g2="V" 	k="53" />
<hkern g1="guillemotleft,guilsinglleft" 	g2="X" 	k="33" />
<hkern g1="guillemotleft,guilsinglleft" 	g2="x" 	k="41" />
<hkern g1="guillemotright,guilsinglright" 	g2="T" 	k="115" />
<hkern g1="guillemotright,guilsinglright" 	g2="W" 	k="20" />
<hkern g1="guillemotright,guilsinglright" 	g2="Y" 	k="150" />
<hkern g1="guillemotright,guilsinglright" 	g2="S,Sacute" 	k="61" />
<hkern g1="guillemotright,guilsinglright" 	g2="Z,Zacute,Zdotaccent" 	k="25" />
<hkern g1="guillemotright,guilsinglright" 	g2="J" 	k="61" />
<hkern g1="guillemotright,guilsinglright" 	g2="V" 	k="41" />
<hkern g1="guillemotright,guilsinglright" 	g2="X" 	k="37" />
<hkern g1="guillemotright,guilsinglright" 	g2="x" 	k="57" />
<hkern g1="question" 	g2="quoteright,quotedblright" 	k="72" />
<hkern g1="quotedbl,quotesingle" 	g2="comma,period,ellipsis" 	k="272" />
<hkern g1="quotedbl,quotesingle" 	g2="A,Aogonek" 	k="150" />
<hkern g1="quotedbl,quotesingle" 	g2="X" 	k="16" />
<hkern g1="quotedbl,quotesingle" 	g2="s,sacute" 	k="41" />
<hkern g1="quoteright,quotedblright" 	g2="g" 	k="49" />
<hkern g1="quoteright,quotedblright" 	g2="comma,period,ellipsis" 	k="311" />
<hkern g1="quoteright,quotedblright" 	g2="A,Aogonek" 	k="166" />
<hkern g1="quoteright,quotedblright" 	g2="a,aogonek" 	k="78" />
<hkern g1="quoteright,quotedblright" 	g2="f" 	k="25" />
<hkern g1="quoteright,quotedblright" 	g2="c,d,e,o,q,oacute,cacute,eogonek" 	k="49" />
<hkern g1="quoteright,quotedblright" 	g2="X" 	k="33" />
<hkern g1="quoteright,quotedblright" 	g2="s,sacute" 	k="72" />
<hkern g1="v" 	g2="T" 	k="41" />
<hkern g1="v" 	g2="Y" 	k="33" />
<hkern g1="v" 	g2="j" 	k="20" />
<hkern g1="v" 	g2="comma,period,ellipsis" 	k="123" />
<hkern g1="v" 	g2="A,Aogonek" 	k="27" />
<hkern g1="v" 	g2="Z,Zacute,Zdotaccent" 	k="16" />
<hkern g1="v" 	g2="a,aogonek" 	k="41" />
<hkern g1="v" 	g2="c,d,e,o,q,oacute,cacute,eogonek" 	k="16" />
<hkern g1="v" 	g2="J" 	k="82" />
<hkern g1="v" 	g2="hyphen,endash,emdash" 	k="33" />
<hkern g1="v" 	g2="z,zacute,zdotaccent" 	k="57" />
<hkern g1="x" 	g2="T" 	k="49" />
<hkern g1="x" 	g2="Y" 	k="68" />
<hkern g1="x" 	g2="y" 	k="37" />
<hkern g1="x" 	g2="S,Sacute" 	k="16" />
<hkern g1="x" 	g2="C,G,O,Q,Oacute,Cacute" 	k="20" />
<hkern g1="x" 	g2="a,aogonek" 	k="20" />
<hkern g1="x" 	g2="c,d,e,o,q,oacute,cacute,eogonek" 	k="53" />
<hkern g1="x" 	g2="hyphen,endash,emdash" 	k="37" />
<hkern g1="x" 	g2="guillemotleft,guilsinglleft" 	k="57" />
<hkern g1="x" 	g2="guillemotright,guilsinglright" 	k="41" />
</font>
</defs></svg> 